bladezz STEAM_0:1:10325827 _bladez
sketchy STEAM_0:1:16938628 sketch|a
uniin STEAM_0:0:9270640 uniin
decapnz STEAM_0:0:15236776 decap
B4zzA STEAM_0:0:3868642 Some_Thing-bday
jakeinabox STEAM_0:0:22110057 madjackau
Riki STEAM_0:0:10476681 Riki
Grue_ STEAM_0:0:19348935 Grue_
bonobo STEAM_0:1:3721022 iM`intel|bonobo
siege` STEAM_0:1:16965464 siege
seeker_ STEAM_0:0:6127703 seeker
OnionS129 STEAM_0:1:7676946 OnionS
dogtime STEAM_0:1:314299 dogtime
bulk STEAM_0:0:10060391 bulk
Aze STEAM_0:1:12002305 Avril
noser STEAM_0:0:19726300 noser
g1raffe STEAM_0:1:18548501 g1raffe
Pokemaster STEAM_0:1:15264479 pokepooperic
Amril STEAM_0:1:5959400 Amril
Snakeeeee STEAM_0:1:22810631 Snakeeeeeee
Feresar1 STEAM_0:0:15426345 ferelah
ox1de STEAM_0:0:3622998 oxide
snowblind STEAM_0:1:1547596 snowblind
Arokasi STEAM_0:0:27102692 Arokasi
CorruptDropbear STEAM_0:0:20825299 Dropbear
eps STEAM_0:0:24499248 eps
khao STEAM_0:1:17365867 khao
Xyziz STEAM_0:0:24316283 Xyziz
Aftershock STEAM_0:0:12192405 aftershock
nagatoyuki STEAM_0:0:1912735 iM`intel|yuki
Crowie STEAM_0:1:5383246 Crowie
d4n_ STEAM_0:1:19712229 d4n
orylol STEAM_0:1:20151537 ory
Spitty STEAM_0:0:11560062 spitty
ssmashh STEAM_0:0:22902522 smash_
gabbo STEAM_0:0:18300425 gabbo
weaselben STEAM_0:0:18090755 weaselben
Infectious STEAM_0:0:347929 Infect-
Brodogs STEAM_0:1:17083920 Brodogs
Theyleon STEAM_0:0:16707270 Theyleon
garth STEAM_0:0:24122105 garth
_scratch STEAM_0:1:17111759 scratch
fatcraftman STEAM_0:1:22674758 Fat
lock STEAM_0:1:24064692 lock
Smithsonian STEAM_0:0:23744682 Smithsonian
lefty25 STEAM_0:0:7249081 Lefty
N3CROSiS STEAM_0:1:6715489 necrosis
darienphoenix STEAM_0:1:7299470 Darien
chpy STEAM_0:1:22533796 chpy
kocka STEAM_0:0:20217483 kokaway
NotJim STEAM_0:0:22117912 NotJim
Eyce STEAM_0:0:15124764 Eyce
Putto STEAM_0:0:7802132 Putto
JuicyCaboose STEAM_0:0:13992472 juicycaboose
Dicko STEAM_0:0:18486731 dicko
pick STEAM_0:0:104960 pick
TomSawyer STEAM_0:0:19175235 TomSawyer|afk
Reptile_ STEAM_0:1:1065475 rep```
yertle STEAM_0:0:11031209 yertle
ExT STEAM_0:1:4227194 ExT
skae STEAM_0:1:31647857 skae
JiNxX STEAM_0:1:19928337 JiNxXx
dwight123 STEAM_0:1:21894214 great_DWIGHT_shark
happych3f STEAM_0:0:736905 happychef
Jay-Dubz STEAM_0:1:38699268 Jay-Dubz
ir_pegg STEAM_0:0:577108 ir_pegg
dk` STEAM_0:0:17838930 dk
Tim STEAM_0:1:25184621 TimTims
Magnetic_Pony STEAM_0:1:41348236 magnet
Weltmeister STEAM_0:0:8522320 welt
wm STEAM_0:1:7175436 wm
grimstar STEAM_0:0:5189327 grimstar
jameh STEAM_0:1:101867 jameh
Snoble STEAM_0:0:32890092 Snoble
nuttynado STEAM_0:1:33713004 nuttynado
{Azura_Sarah} STEAM_0:0:14472240 {Azura_Sarah}
genesiscode STEAM_0:0:16828034 Genesis
eps STEAM_0:0:24499248 eps
Sauce_ STEAM_0:1:17805465 Sauce_
spoon- STEAM_0:1:102095 spoon-
stdstds STEAM_0:1:17950158 stdstds
panda_ STEAM_0:0:15411890 panda_
baf STEAM_0:1:17550661 B4F
combust STEAM_0:0:11579213 combust
HITMANtsuna STEAM_0:1:32729556 MEGAowned
K13R7N STEAM_0:1:2449707 K13R7N
beastj STEAM_0:1:17962818 beastj
RynoCerus STEAM_0:0:23192637 RynoCerus
shenkz STEAM_0:1:14654863 shenkz
CitizenCane STEAM_0:0:16562506 CitizenCane
shtr STEAM_0:0:23881410 shooter-
Wofiel STEAM_0:0:16778883 Wofiel
chenkaman STEAM_0:1:18240546 ChenkaChang
insidelane STEAM_0:1:11792562 miicah
STARBURNS STEAM_0:1:21132101 starburns
mantastic STEAM_0:1:18818342 mant
