civilwar-23-19-Fri-02-9-2011-pl_badwater-1.zip
civilwar-23-38-Fri-02-9-2011-plr_hightower-2.zip
civilwar-00-14-Sat-03-9-2011-pl_goldrush-3.zip
civilwar-14-02-Sat-03-9-2011-pl_badwater-4.zip
civilwar-14-15-Sat-03-9-2011-pl_barnblitz-5.zip
civilwar-14-43-Sat-03-9-2011-pl_upward-6.zip
civilwar-15-11-Sat-03-9-2011-pl_goldrush-7.zip
civilwar-15-53-Sat-03-9-2011-pl_thundermountain-8.zip
civilwar-19-25-Sat-03-9-2011-pl_badwater-9.zip
civilwar-20-01-Sat-03-9-2011-plr_hightower-10.zip
civilwar-20-30-Sat-03-9-2011-pl_goldrush-11.zip
civilwar-21-13-Sat-03-9-2011-pl_badwater-12.zip
civilwar-21-38-Sat-03-9-2011-pl_upward-13.zip
civilwar-22-04-Sat-03-9-2011-pl_goldrush-14.zip
civilwar-22-48-Sat-03-9-2011-pl_badwater-15.zip
civilwar-23-13-Sat-03-9-2011-plr_hightower-16.zip
civilwar-23-32-Sat-03-9-2011-pl_upward-17.zip
civilwar-00-01-Sun-04-9-2011-pl_badwater-18.zip
civilwar-16-47-Sun-04-9-2011-pl_upward-19.zip
civilwar-17-12-Sun-04-9-2011-pl_badwater-20.zip
civilwar-17-50-Sun-04-9-2011-pl_barnblitz-21.zip
civilwar-18-23-Sun-04-9-2011-pl_goldrush-22.zip
civilwar-19-21-Sun-04-9-2011-pl_badwater-23.zip
civilwar-22-33-Sun-04-9-2011-pl_thundermountain-24.zip
civilwar-23-57-Sun-04-9-2011-pl_badwater-25.zip
civilwar-14-17-Mon-05-9-2011-pl_goldrush-26.zip
civilwar-14-50-Mon-05-9-2011-pl_badwater-27.zip
civilwar-15-29-Mon-05-9-2011-pl_upward-28.zip
civilwar-15-59-Mon-05-9-2011-plr_pipeline-29.zip
civilwar-22-51-Tue-06-9-2011-pl_badwater-30.zip
civilwar-23-13-Tue-06-9-2011-pl_upward-31.zip
civilwar-23-46-Tue-06-9-2011-pl_badwater-32.zip
civilwar-00-29-Wed-07-9-2011-plr_pipeline-33.zip
civilwar-22-36-Wed-07-9-2011-pl_goldrush-34.zip
civilwar-23-30-Wed-07-9-2011-pl_barnblitz-35.zip
civilwar-21-21-Sat-10-9-2011-pl_badwater-36.zip
civilwar-21-40-Sat-10-9-2011-pl_goldrush-37.zip
civilwar-22-09-Sat-10-9-2011-pl_upward-38.zip
civilwar-22-42-Sat-10-9-2011-pl_goldrush-39.zip
