STEAM_0:1:16938628
STEAM_0:0:8328601
STEAM_0:0:3868642
STEAM_0:0:10476681
STEAM_0:0:19348935
STEAM_0:1:3721022
STEAM_0:0:24499248
STEAM_0:0:19415161
STEAM_0:1:7676946
STEAM_0:0:19115768
STEAM_0:1:20812995
STEAM_0:0:18416004
STEAM_0:1:18548501
STEAM_0:1:15264479
STEAM_0:1:28918726
STEAM_0:0:26267094
STEAM_0:1:22843164
STEAM_0:0:20825299
STEAM_0:0:5133018
STEAM_0:1:22533796
STEAM_0:0:18486731
STEAM_0:1:22810631
STEAM_0:0:24631808
STEAM_0:0:5841613
STEAM_0:0:24316283
STEAM_0:1:22534711
STEAM_0:1:19928337
STEAM_0:1:30640011
STEAM_0:1:17365867
STEAM_0:1:33713004
STEAM_0:1:23745415
STEAM_0:1:1547596
STEAM_0:1:5383246
STEAM_0:1:26623743
STEAM_0:0:11684335
STEAM_0:1:20151537
STEAM_0:0:11560062
STEAM_0:1:17950158
STEAM_0:1:23902849
STEAM_0:1:16176059
STEAM_0:1:27183159
STEAM_0:0:18090755
STEAM_0:0:347929
STEAM_0:1:19185650
STEAM_0:0:16707270
STEAM_0:1:19426562
STEAM_0:1:25550531
STEAM_0:0:14356489
STEAM_0:1:20069635
STEAM_0:1:2425713
STEAM_0:1:6715489
STEAM_0:1:30067940
STEAM_0:0:29071037
STEAM_0:0:11524193
STEAM_0:1:7299470
STEAM_0:0:5188240
STEAM_0:0:20217483
STEAM_0:0:3868673
STEAM_0:1:26935388
STEAM_0:0:16473625
STEAM_0:1:24971188
STEAM_0:0:8522320
STEAM_0:1:97175
STEAM_0:0:7802132
STEAM_0:0:9630695
STEAM_0:0:42679461
STEAM_0:1:17072731
STEAM_0:1:24134136
STEAM_0:1:18252693
STEAM_0:1:21562190
STEAM_0:0:19961120
STEAM_0:0:104960
STEAM_0:0:8328601
STEAM_0:1:1065475
STEAM_0:1:2449707
STEAM_0:0:19810876
STEAM_0:1:13674670
STEAM_0:1:1590251
STEAM_0:0:267294
STEAM_0:1:422719
STEAM_0:1:31647857
STEAM_0:1:15705352
STEAM_0:0:9021026
STEAM_0:1:17313671
STEAM_0:1:14654863
STEAM_0:0:577108
STEAM_0:1:41348236
STEAM_0:1:19550773
STEAM_0:1:17985625
STEAM_0:0:16828034
STEAM_0:0:20765242
STEAM_0:1:22326360
STEAM_0:1:101867
STEAM_0:1:17805465
STEAM_0:1:19009297
STEAM_0:0:26955903
STEAM_0:0:24387266
STEAM_0:1:17550661
STEAM_0:1:19258890
STEAM_0:0:11579213
STEAM_0:1:17454355
STEAM_0:0:8325048
STEAM_0:1:18871941
STEAM_0:1:21132101
STEAM_0:0:37040515
STEAM_0:0:19962484
STEAM_0:0:17009661
STEAM_0:1:25082499
STEAM_0:1:16282943
STEAM_0:0:30765916
STEAM_0:0:35681308
STEAM_0:1:18182076
STEAM_0:1:18818342
