STEAM_0:1:14469631%_bladez%isnipe/predator%hacka%Fri 10/04/2009 02:00:05
STEAM_0:0:5066204%_bladez%clutch%hacker%Sun 26/07/2009 13:12:33
STEAM_0:1:22537246%_bladez%burningaces%hai%Thu 10/09/2009 17:16:36
STEAM_0:0:281034%_bladez%sigma%reban%Sun 13/06/2010 12:25:06
STEAM_0:0:21328299%_bladez%laveidem%(OR WHATEVER HIS NAME IS) hacking%Mon 13/09/2010 17:14:16
STEAM_0:1:62542%_bladez%laveidem%(second account) hacking%Mon 13/09/2010 17:18:13
STEAM_0:1:13868889%_bladez%infek%hacker%Fri 17/09/2010 17:53:52
STEAM_0:0:22611265%_bladez%goat%hacker%Fri 17/09/2010 17:54:11
STEAM_0:1:29879361%_bladez%thrasher%hacking%Fri 17/09/2010 18:09:22
STEAM_0:1:13349239%_bladez%whitemagic/flux%(second account) see other ban%Sat 02/10/2010 22:42:39
STEAM_0:1:18954491%siege%sjb%hacka%Fri 26/11/2010 08:12:07
STEAM_0:1:33163293%_bladez%thrasher%2nd account hacking%Sat 27/11/2010 22:19:51
STEAM_0:1:13824920%_bladez%thrasher%3rd account hacking%Sat 27/11/2010 22:53:23
STEAM_0:1:3641311%siege%optimus%cheating%Sun 26/12/2010 13:20:44
STEAM_0:0:27383660%siege%optimus%account cheating%Sun 26/12/2010 13:21:28
STEAM_0:1:18955866%_bladez%vermillion%exploiting%Tue 25/01/2011 23:34:11
STEAM_0:0:2730818%_bladez%darklord%aimbotting - see #9898 for evidence%Fri 15/07/2011 23:53:14
STEAM_0:0:42586077%_bladez%darklord%alt account%Sat 16/07/2011 23:43:34
STEAM_0:1:42575325%_bladez%darklord%alt account 2 (or some really laggy russian)%Sun 17/07/2011 00:31:22
STEAM_0:1:42576508%_bladez%darklord%alt account 3 (4?)%Mon 18/07/2011 21:28:51
STEAM_0:0:18903987%siege%kaiza%VAC ban m8%Sat 13/08/2011 13:52:52
STEAM_0:1:39222612%siege%yuri%lol bl%Sun 18/09/2011 09:23:24
STEAM_0:1:44383919%siege%yuri%ANOTHER ONE LOL%Mon 19/09/2011 18:27:53
STEAM_0:1:44396069%siege%yuri%LoL%Mon 03/10/2011 21:05:17
STEAM_0:0:43183215%[iPGN-TF2][1]%Archangel%New account autoban%Mon 17/10/2011 17:50:57
STEAM_0:1:45173933%siege%yuri%2ez%Mon 17/10/2011 21:30:59
STEAM_0:1:40175889%_bladez%khyle%dno who u are but stop%Sat 29/10/2011 23:37:24
STEAM_0:0:46164469%[iPGN-TF2][1]%miekka686%New account autoban%Tue 15/11/2011 17:50:30
STEAM_0:0:43160384%[iPGN-TF2][1]%.Kaiza%New account autoban%Sat 19/11/2011 21:17:24
STEAM_0:0:21195045%seeker%ske%abusing admins%Tue 22/11/2011 21:29:54
STEAM_0:0:46456792%[iPGN-TF2][1]%switch%New account autoban%Wed 23/11/2011 19:43:45
STEAM_0:0:22588266%siege%sjb%wallhacking%Sat 26/11/2011 15:00:10
STEAM_0:1:25255534%siege%yuri%hehe%Sun 27/11/2011 16:51:40
STEAM_0:0:43992145%[iPGN-TF2][1]%Dive%New account autoban%Mon 28/11/2011 15:46:24
STEAM_0:1:31413544%siege%yuri%.%Wed 28/12/2011 00:25:05
STEAM_0:0:35534746%wm%yuri%yuri%Wed 11/01/2012 17:01:36
STEAM_0:0:44798136%[iPGN-TF2][1]%Jerome Indahood%New account autoban%Sun 15/01/2012 23:16:40
STEAM_0:0:42506076%[iPGN-TF2][1]%ressan.nXg%New account autoban%Mon 27/02/2012 00:51:42
STEAM_0:1:49717598%_bladez%yuri%evade numba 5%Mon 05/03/2012 00:02:31
STEAM_0:1:1065475%siege%rep%VAC ban%Fri 09/03/2012 21:40:13
STEAM_0:1:49237271%[iPGN-TF2][1]%Rub 'N' Tug%New account autoban%Sat 10/03/2012 17:45:42
STEAM_0:1:50716523%[iPGN-TF2][1]%Staves%New account autoban%Mon 09/04/2012 23:00:10
STEAM_0:1:50670629%[iPGN-TF2][1]%slashed%New account autoban%Fri 13/04/2012 23:17:29
STEAM_0:1:14936356%_bladez%someidiotfromcs%SOIYA%Sun 29/04/2012 19:53:05
STEAM_0:0:49085516%[iPGN-TF2][1]%5 Year Old Ninja™%New account autoban%Sat 05/05/2012 18:10:37
STEAM_0:1:49532824%[iPGN-TF2][1]%Vantage%New account autoban%Tue 29/05/2012 17:32:16
STEAM_0:0:51607698%[iPGN-TF2][1]%jdfa4%New account autoban%Wed 30/05/2012 23:08:53
STEAM_0:0:52150090%[iPGN-TF2][1]%Faithless%New account autoban%Sat 09/06/2012 16:01:36
STEAM_0:0:51408576%_bladez%yuri%alt%Sun 10/06/2012 19:59:10
STEAM_0:1:15006970%_bladez%yuri%#10000%Mon 16/07/2012 01:55:50
STEAM_0:1:53626349%[iPGN-TF2]%psyclic%New account autoban%Sat 21/07/2012 17:48:24
STEAM_0:0:53647110%[iPGN-TF2]%360%New account autoban%Sat 21/07/2012 17:48:33
STEAM_0:1:20974135%siege%fluffy%hacka%Mon 23/07/2012 21:41:58
STEAM_0:0:44739591%[iPGN-TF2]%spooky%New account autoban%Sun 29/07/2012 18:51:20
STEAM_0:0:51217788%[iPGN-TF2]%dog%New account autoban%Fri 03/08/2012 22:12:25
STEAM_0:1:54179520%[iPGN-TF2]%pussydestroyer%New account autoban%Sat 04/08/2012 21:43:57
STEAM_0:1:38854238%siege%yuri%yuri%Sat 04/08/2012 22:57:56
STEAM_0:0:54331426%seeker%LOL%YURI%Fri 07/09/2012 23:47:28
STEAM_0:0:54983067%[iPGN-TF2]%Mega Man%New account autoban%Sat 08/09/2012 23:08:27
STEAM_0:0:44807320%_bladez%havoc%vacced%Tue 30/10/2012 22:29:07
