HTTP/1.1 200 OK
Date: Thu, 06 Jan 2011 01:32:10 GMT
Server: Apache/1.3.41 Ben-SSL/1.59 (Unix) PHP/4.4.9 with Suhosin-Patch mod_perl/1.30
X-Powered-By: PHP/4.4.9
Set-Cookie: PHPSESSID=2de5165b077d1099ab5395b0d0cfdec3; path=/
Expires: Thu, 19 Nov 1981 08:52:00 GMT
Cache-Control: private
Pragma: no-cache
Connection: close
Transfer-Encoding: chunked
Content-Type: text/html
7
success
0
