STEAM_0:0:35755%bob%0%0%0%0%0%0%0%0%0%0%0
STEAM_0:1:17070163%bob%0%0%0%0%0%0%0%0%0%0%0
STEAM_0:0:19726300%bob%0%0%0%0%0%0%0%0%0%0%0
STEAM_0:1:17985349%bob%0%0%0%0%0%0%0%0%0%0%0
STEAM_0:0:1812435%bob%0%0%0%0%0%0%0%0%0%0%0
STEAM_0:1:16938628%bob%0%0%0%0%0%0%0%0%0%0%0
STEAM_0:1:24626071%bob%0%0%0%0%0%0%0%0%0%0%0
STEAM_0:1:17343597%bob%0%0%0%0%0%0%0%0%0%0%0
STEAM_0:1:20847880%bob%0%0%0%0%0%0%0%0%0%0%0
STEAM_0:0:21328299%bob%0%0%0%0%0%0%0%0%0%0%0
STEAM_0:1:24626267%bob%0%0%0%0%0%0%0%0%0%0%0
STEAM_0:1:7175436%bob%0%0%0%0%0%0%0%0%0%0%0
