STEAM_0:0:13992472%couponbugdotcom%0%0%0%0%0%1%0%0%0%0%0%0%0%0%0%0%0%0%0%0%0
STEAM_0:0:11411713%moo%0%0%0%0%0%1%0%0%0%0%0%0%0%0%0%0%0%0%0%0%0
STEAM_0:0:19726300%HughJcunt%0%0%0%0%0%1%0%0%0%0%0%0%0%0%0%0%0%0%0%0%0
STEAM_0:0:14356489%MoMercyMoMroblem%0%0%0%0%0%1%0%0%0%0%0%0%0%0%0%0%0%0%0%0%0
STEAM_0:1:20252086%steve%0%0%0%0%0%1%0%0%0%0%0%0%0%0%0%0%0%0%0%0%0
STEAM_0:1:17365867%affinitykyo%0%0%0%0%0%1%0%0%0%0%0%0%0%0%0%0%0%0%0%0%0
STEAM_0:0:318621%warGem%0%0%0%0%0%1%0%0%0%0%0%0%0%0%0%0%0%0%0%0%0
STEAM_0:1:27667%bz%0%0%0%0%0%1%0%0%0%0%0%0%0%0%0%0%0%0%0%0%0
STEAM_0:0:19674059%Geoh%0%0%0%0%0%1%0%0%0%0%0%0%0%0%0%0%0%0%0%0%0
STEAM_0:0:28789132%punisherofdreams%0%0%0%0%0%1%0%0%0%0%0%0%0%0%0%0%0%0%0%0%0
STEAM_0:0:17653481%HisNameIsntRober%0%0%0%0%0%1%0%0%0%0%0%0%0%0%0%0%0%0%0%0%0
STEAM_0:1:15188019%Milky%0%0%0%0%0%1%0%0%0%0%0%0%0%0%0%0%0%0%0%0%0
