114.76.142.159 c114-76-142-159.sunsh2.vic.optusnet.com.au
124.188.70.122 CPE-124-188-70-122.facz1.ken.bigpond.net.au
114.76.142.159 c114-76-142-159.sunsh2.vic.optusnet.com.au
122.107.87.219 c122-107-87-219.blktn5.nsw.optusnet.com.au
124.170.34.189 124-170-34-189.dyn.iinet.net.au
210.49.76.239 c210-49-76-239.dandn3.vic.optusnet.com.au
122.106.77.185 c122-106-77-185.rivrw1.nsw.optusnet.com.au
121.50.201.171 CPE-121-50-201-171.dsl.OntheNet.net
60.241.7.206 60-241-7-206.static.tpgi.com.au
122.108.160.30 c122-108-160-30.rochd4.qld.optusnet.com.au
118.209.200.208 ppp118-209-200-208.lns20.mel6.internode.on.net
60.241.7.206 60-241-7-206.static.tpgi.com.au
122.106.60.121 c122-106-60-121.rivrw1.nsw.optusnet.com.au
110.174.138.25 110-174-138-25.static.tpgi.com.au
210.49.76.239 c210-49-76-239.dandn3.vic.optusnet.com.au
122.108.160.30 c122-108-160-30.rochd4.qld.optusnet.com.au
122.108.160.30 c122-108-160-30.rochd4.qld.optusnet.com.au
114.76.142.159 c114-76-142-159.sunsh2.vic.optusnet.com.au
122.106.77.185 c122-106-77-185.rivrw1.nsw.optusnet.com.au
122.108.160.30 c122-108-160-30.rochd4.qld.optusnet.com.au
118.209.200.208 ppp118-209-200-208.lns20.mel6.internode.on.net
122.106.60.121 c122-106-60-121.rivrw1.nsw.optusnet.com.au
122.108.160.30 c122-108-160-30.rochd4.qld.optusnet.com.au
60.241.163.8 60-241-163-8.static.tpgi.com.au
123.243.131.182 123-243-131-182.static.tpgi.com.au
202.7.216.150 202-7-216-150.static.tpgi.com.au
122.107.128.161 c122-107-128-161.eburwd5.vic.optusnet.com.au
122.106.77.185 c122-106-77-185.rivrw1.nsw.optusnet.com.au
114.76.232.38 c114-76-232-38.farfl3.nsw.optusnet.com.au
58.175.77.204 CPE-58-175-77-204.dqzk1.lon.bigpond.net.au
122.107.87.219 c122-107-87-219.blktn5.nsw.optusnet.com.au
58.175.77.204 CPE-58-175-77-204.dqzk1.lon.bigpond.net.au
114.76.142.159 c114-76-142-159.sunsh2.vic.optusnet.com.au
122.106.107.10 c122-106-107-10.rivrw6.nsw.optusnet.com.au
121.219.136.164 CPE-121-219-136-164.lnse2.lon.bigpond.net.au
60.241.163.8 60-241-163-8.static.tpgi.com.au
123.243.131.182 123-243-131-182.static.tpgi.com.au
202.7.216.150 202-7-216-150.static.tpgi.com.au
122.107.128.161 c122-107-128-161.eburwd5.vic.optusnet.com.au
122.106.77.185 c122-106-77-185.rivrw1.nsw.optusnet.com.au
114.76.232.38 c114-76-232-38.farfl3.nsw.optusnet.com.au
58.175.77.204 CPE-58-175-77-204.dqzk1.lon.bigpond.net.au
122.107.87.219 c122-107-87-219.blktn5.nsw.optusnet.com.au
58.175.77.204 CPE-58-175-77-204.dqzk1.lon.bigpond.net.au
114.76.142.159 c114-76-142-159.sunsh2.vic.optusnet.com.au
122.106.107.10 c122-106-107-10.rivrw6.nsw.optusnet.com.au
121.219.136.164 CPE-121-219-136-164.lnse2.lon.bigpond.net.au
121.220.98.165 CPE-121-220-98-165.lnse3.win.bigpond.net.au
121.220.98.165 CPE-121-220-98-165.lnse3.win.bigpond.net.au
124.188.70.122 CPE-124-188-70-122.facz1.ken.bigpond.net.au
121.220.98.165 CPE-121-220-98-165.lnse3.win.bigpond.net.au
121.220.98.165 CPE-121-220-98-165.lnse3.win.bigpond.net.au
124.188.70.122 CPE-124-188-70-122.facz1.ken.bigpond.net.au
118.209.3.216 ppp118-209-3-216.lns20.mel4.internode.on.net
60.241.82.246 60-241-82-246.static.tpgi.com.au
203.45.6.103 collin206.lnk.telstra.net
121.213.248.8 CPE-121-213-248-8.static.wa.bigpond.net.au
124.188.70.122 CPE-124-188-70-122.facz1.ken.bigpond.net.au
121.209.0.50 CPE-121-209-0-50.bqgp1.fli.bigpond.net.au
124.191.69.64 CPE-124-191-69-64.szbn2.lon.bigpond.net.au
118.209.94.186 ppp118-209-94-186.lns20.mel4.internode.on.net
118.209.3.216 ppp118-209-3-216.lns20.mel4.internode.on.net
60.241.82.246 60-241-82-246.static.tpgi.com.au
203.45.6.103 collin206.lnk.telstra.net
121.213.248.8 CPE-121-213-248-8.static.wa.bigpond.net.au
124.188.70.122 CPE-124-188-70-122.facz1.ken.bigpond.net.au
121.209.0.50 CPE-121-209-0-50.bqgp1.fli.bigpond.net.au
124.191.69.64 CPE-124-191-69-64.szbn2.lon.bigpond.net.au
143.69.249.10 ps10.ahp.ps1.us.army.mil
123.243.182.117 123-243-182-117.static.tpgi.com.au
211.30.215.210 c211-30-215-210.thorn2.nsw.optusnet.com.au
211.28.154.73 c211-28-154-73.frank1.vic.optusnet.com.au
114.76.232.38 c114-76-232-38.farfl3.nsw.optusnet.com.au
60.240.32.245 60-240-32-245.tpgi.com.au
122.106.200.46 c122-106-200-46.belrs3.nsw.optusnet.com.au
58.107.170.246 c58-107-170-246.werrb1.vic.optusnet.com.au
123.243.131.182 123-243-131-182.static.tpgi.com.au
118.90.77.198 ip-118-90-77-198.xdsl.xnet.co.nz
123.243.182.117 123-243-182-117.static.tpgi.com.au
123.243.182.117 123-243-182-117.static.tpgi.com.au
122.106.21.239 c122-106-21-239.rivrw1.nsw.optusnet.com.au
123.243.182.117 123-243-182-117.static.tpgi.com.au
211.30.215.210 c211-30-215-210.thorn2.nsw.optusnet.com.au
211.28.154.73 c211-28-154-73.frank1.vic.optusnet.com.au
114.76.232.38 c114-76-232-38.farfl3.nsw.optusnet.com.au
60.240.32.245 60-240-32-245.tpgi.com.au
122.106.200.46 c122-106-200-46.belrs3.nsw.optusnet.com.au
58.107.170.246 c58-107-170-246.werrb1.vic.optusnet.com.au
123.243.131.182 123-243-131-182.static.tpgi.com.au
118.90.77.198 ip-118-90-77-198.xdsl.xnet.co.nz
123.243.182.117 123-243-182-117.static.tpgi.com.au
123.243.182.117 123-243-182-117.static.tpgi.com.au
122.106.21.239 c122-106-21-239.rivrw1.nsw.optusnet.com.au
114.76.142.159 c114-76-142-159.sunsh2.vic.optusnet.com.au
123.243.182.117 123-243-182-117.static.tpgi.com.au
124.171.210.88 124-171-210-88.dyn.iinet.net.au
211.26.171.81 81.171-26-211.dynamic.dsl.syd.iprimus.net.au
122.107.196.115 c122-107-196-115.eburwd5.vic.optusnet.com.au
122.107.196.115 c122-107-196-115.eburwd5.vic.optusnet.com.au
60.240.32.245 60-240-32-245.tpgi.com.au
60.241.89.82 60-241-89-82.static.tpgi.com.au
121.50.201.54 CPE-121-50-201-54.dsl.OntheNet.net
58.107.170.246 c58-107-170-246.werrb1.vic.optusnet.com.au
122.106.77.185 c122-106-77-185.rivrw1.nsw.optusnet.com.au
122.107.196.115 c122-107-196-115.eburwd5.vic.optusnet.com.au
114.76.142.159 c114-76-142-159.sunsh2.vic.optusnet.com.au
123.243.182.117 123-243-182-117.static.tpgi.com.au
124.171.210.88 124-171-210-88.dyn.iinet.net.au
211.26.171.81 81.171-26-211.dynamic.dsl.syd.iprimus.net.au
122.107.196.115 c122-107-196-115.eburwd5.vic.optusnet.com.au
122.107.196.115 c122-107-196-115.eburwd5.vic.optusnet.com.au
60.240.32.245 60-240-32-245.tpgi.com.au
60.241.89.82 60-241-89-82.static.tpgi.com.au
121.50.201.54 CPE-121-50-201-54.dsl.OntheNet.net
122.106.77.185 c122-106-77-185.rivrw1.nsw.optusnet.com.au
60.241.89.82 60-241-89-82.static.tpgi.com.au
124.171.23.174 124-171-23-174.dyn.iinet.net.au
124.171.23.174 124-171-23-174.dyn.iinet.net.au
60.241.64.76 60-241-64-76.static.tpgi.com.au
210.50.137.213 213.002.lgcvx-syd002.cvx.syd.iprimus.net.au
203.219.209.173 203-219-209-173.static.tpgi.com.au
121.50.201.54 CPE-121-50-201-54.dsl.OntheNet.net
115.64.127.175 115-64-127-175.tpgi.com.au
60.226.146.119 CPE-60-226-146-119.qld.bigpond.net.au
114.76.142.159 c114-76-142-159.sunsh2.vic.optusnet.com.au
122.107.196.115 c122-107-196-115.eburwd5.vic.optusnet.com.au
211.30.100.114 c211-30-100-114.rivrw2.nsw.optusnet.com.au
114.76.142.159 c114-76-142-159.sunsh2.vic.optusnet.com.au
118.209.125.151 ppp118-209-125-151.lns20.mel4.internode.on.net
118.209.125.151 ppp118-209-125-151.lns20.mel4.internode.on.net
60.226.146.119 CPE-60-226-146-119.qld.bigpond.net.au
122.107.196.115 c122-107-196-115.eburwd5.vic.optusnet.com.au
211.30.100.114 c211-30-100-114.rivrw2.nsw.optusnet.com.au
114.76.142.159 c114-76-142-159.sunsh2.vic.optusnet.com.au
121.50.201.54 CPE-121-50-201-54.dsl.OntheNet.net
