D:\iPGN-Bots\iPGN-Comp\stats-csgo-s5\history\07-01-15.txt 1420605188
D:\iPGN-Bots\iPGN-Comp\stats-csgo-s5\history\06-01-15.txt 1420518788
D:\iPGN-Bots\iPGN-Comp\stats-csgo-s5\history\05-01-15.txt 1420432388
D:\iPGN-Bots\iPGN-Comp\stats-csgo-s5\history\04-01-15.txt 1420345988
D:\iPGN-Bots\iPGN-Comp\stats-csgo-s5\history\03-01-15.txt 1420259588
D:\iPGN-Bots\iPGN-Comp\stats-csgo-s5\history\02-01-15.txt 1420173188
D:\iPGN-Bots\iPGN-Comp\stats-csgo-s5\history\01-01-15.txt 1420086788
D:\iPGN-Bots\iPGN-Comp\stats-csgo-s5\history\31-12-14.txt 1420000388
D:\iPGN-Bots\iPGN-Comp\stats-csgo-s5\history\30-12-14.txt 1419913988
D:\iPGN-Bots\iPGN-Comp\stats-csgo-s5\history\29-12-14.txt 1419827588
D:\iPGN-Bots\iPGN-Comp\stats-csgo-s5\history\28-12-14.txt 1419741188
D:\iPGN-Bots\iPGN-Comp\stats-csgo-s5\history\27-12-14.txt 1419654788
D:\iPGN-Bots\iPGN-Comp\stats-csgo-s5\history\26-12-14.txt 1419568388
D:\iPGN-Bots\iPGN-Comp\stats-csgo-s5\history\25-12-14.txt 1419481988
D:\iPGN-Bots\iPGN-Comp\stats-csgo-s5\history\24-12-14.txt 1419395588
D:\iPGN-Bots\iPGN-Comp\stats-csgo-s5\history\23-12-14.txt 1419309188
D:\iPGN-Bots\iPGN-Comp\stats-csgo-s5\history\22-12-14.txt 1419222788
D:\iPGN-Bots\iPGN-Comp\stats-csgo-s5\history\21-12-14.txt 1419136388
D:\iPGN-Bots\iPGN-Comp\stats-csgo-s5\history\20-12-14.txt 1419049988
D:\iPGN-Bots\iPGN-Comp\stats-csgo-s5\history\19-12-14.txt 1418963588
D:\iPGN-Bots\iPGN-Comp\stats-csgo-s5\history\18-12-14.txt 1418877188
D:\iPGN-Bots\iPGN-Comp\stats-csgo-s5\history\17-12-14.txt 1418790788
D:\iPGN-Bots\iPGN-Comp\stats-csgo-s5\history\16-12-14.txt 1418704388
D:\iPGN-Bots\iPGN-Comp\stats-csgo-s5\history\15-12-14.txt 1418617988
D:\iPGN-Bots\iPGN-Comp\stats-csgo-s5\history\14-12-14.txt 1418531588
D:\iPGN-Bots\iPGN-Comp\stats-csgo-s5\history\13-12-14.txt 1418445188
D:\iPGN-Bots\iPGN-Comp\stats-csgo-s5\history\12-12-14.txt 1418358788
D:\iPGN-Bots\iPGN-Comp\stats-csgo-s5\history\11-12-14.txt 1418272388
D:\iPGN-Bots\iPGN-Comp\stats-csgo-s5\history\10-12-14.txt 1418185988
D:\iPGN-Bots\iPGN-Comp\stats-csgo-s5\history\09-12-14.txt 1418099588
D:\iPGN-Bots\iPGN-Comp\stats-csgo-s5\history\08-12-14.txt 1418013188
D:\iPGN-Bots\iPGN-Comp\stats-csgo-s5\history\07-12-14.txt 1417926788
D:\iPGN-Bots\iPGN-Comp\stats-csgo-s5\history\06-12-14.txt 1417840388
D:\iPGN-Bots\iPGN-Comp\stats-csgo-s5\history\05-12-14.txt 1417753988
D:\iPGN-Bots\iPGN-Comp\stats-csgo-s5\history\04-12-14.txt 1417667588
D:\iPGN-Bots\iPGN-Comp\stats-csgo-s5\history\03-12-14.txt 1417581188
D:\iPGN-Bots\iPGN-Comp\stats-csgo-s5\history\02-12-14.txt 1417494788
D:\iPGN-Bots\iPGN-Comp\stats-csgo-s5\history\01-12-14.txt 1417408388
D:\iPGN-Bots\iPGN-Comp\stats-csgo-s5\history\30-11-14.txt 1417321988
D:\iPGN-Bots\iPGN-Comp\stats-csgo-s5\history\29-11-14.txt 1417235588
D:\iPGN-Bots\iPGN-Comp\stats-csgo-s5\history\28-11-14.txt 1417149188
D:\iPGN-Bots\iPGN-Comp\stats-csgo-s5\history\27-11-14.txt 1417062788
D:\iPGN-Bots\iPGN-Comp\stats-csgo-s5\history\26-11-14.txt 1416976388
D:\iPGN-Bots\iPGN-Comp\stats-csgo-s5\history\25-11-14.txt 1416889988
D:\iPGN-Bots\iPGN-Comp\stats-csgo-s5\history\24-11-14.txt 1416803588
D:\iPGN-Bots\iPGN-Comp\stats-csgo-s5\history\23-11-14.txt 1416717188
D:\iPGN-Bots\iPGN-Comp\stats-csgo-s5\history\22-11-14.txt 1416630788
D:\iPGN-Bots\iPGN-Comp\stats-csgo-s5\history\21-11-14.txt 1416544388
D:\iPGN-Bots\iPGN-Comp\stats-csgo-s5\history\20-11-14.txt 1416457988
D:\iPGN-Bots\iPGN-Comp\stats-csgo-s5\history\19-11-14.txt 1416371588
