STEAM_1:0:43562214%0%0%0%22%24%2194%2733%30%7%8%8%7%0%0%0%0%12%10%11%13%0%0%1%6%7%0%0%0%0%0%0%0%0%0%0%0%0%3%0%1%0%2%0%0%0%0%0%0%1%0%0%0%0%7%0%3%0%0%2%0%0%0%0%3%0%0%0%0%0%0%0%0%0.0.0.0
STEAM_1:0:29182262%0%0%0%19%23%2006%2482%30%7%8%8%7%0%0%0%0%11%8%11%12%0%0%1%4%8%0%0%0%0%0%0%0%0%0%0%0%0%7%0%2%0%0%0%0%1%0%0%0%0%0%2%0%0%7%0%0%0%0%0%0%0%0%0%0%0%0%0%0%0%0%0%0%0.0.0.0
STEAM_1:1:36163139%0%0%0%53%18%5039%2252%30%7%8%8%7%0%0%1%1%22%31%9%9%0%1%11%5%6%0%0%0%0%0%0%0%0%0%0%0%0%28%0%5%0%2%0%1%0%0%0%0%2%0%0%0%0%6%0%0%0%0%0%0%0%0%0%6%0%0%0%0%0%3%0%0%0.0.0.0
STEAM_1:1:15874260%0%0%0%25%18%2650%2072%30%7%8%8%7%0%0%1%1%15%10%10%8%0%1%3%2%8%0%0%1%1%0%0%0%0%0%0%0%0%8%0%0%0%0%0%1%0%0%0%0%2%2%0%0%0%9%0%1%0%0%0%1%0%0%0%1%0%0%0%0%0%0%0%0%0.0.0.0
STEAM_1:1:28562039%0%0%0%14%21%1513%2335%30%7%8%8%7%0%0%0%5%9%5%11%10%0%0%0%2%10%0%0%0%0%0%0%0%0%0%0%0%0%6%0%3%0%0%0%0%0%0%0%0%0%0%0%0%0%3%0%0%0%0%0%0%0%0%0%2%0%0%0%0%0%0%0%0%0.0.0.0
STEAM_1:1:20825097%0%0%0%17%23%2390%2437%30%7%8%8%7%0%0%0%3%7%10%12%11%0%0%0%4%9%0%0%0%0%0%0%0%0%0%0%0%0%11%0%0%0%0%0%0%0%0%0%0%0%0%0%0%0%3%0%0%0%0%0%0%0%0%0%3%0%0%0%0%0%0%0%0%0.0.0.0
STEAM_1:0:930488%0%0%0%25%22%2632%2473%30%7%8%8%7%0%0%0%3%11%14%10%12%0%0%2%6%7%0%0%0%1%0%0%0%0%0%0%0%0%14%0%0%0%0%0%1%0%0%0%1%0%0%3%0%0%5%0%0%0%0%0%0%0%0%0%1%0%0%0%0%0%0%0%0%0.0.0.0
STEAM_1:1:64189463%0%0%0%12%24%1785%2583%30%7%8%8%7%0%0%0%0%6%6%13%11%0%0%0%0%12%0%0%0%0%0%0%0%0%0%0%0%0%4%0%0%0%0%0%0%1%0%0%0%0%0%0%0%0%0%0%0%0%0%0%0%0%0%7%0%0%0%0%0%0%0%0%0%0.0.0.0
STEAM_1:1:40668082%0%0%0%13%22%1764%2249%30%7%8%8%7%0%0%1%3%7%6%10%12%0%0%1%2%6%0%0%0%1%0%0%0%0%0%0%0%0%0%0%6%0%0%0%0%0%0%0%0%0%0%0%0%0%2%0%0%0%0%0%0%0%0%0%4%0%0%0%1%0%0%0%0%0.0.0.0


STEAM_1:0:98577423%0%0%0%19%24%2035%2392%29%6%8%8%7%0%0%0%2%9%10%12%12%0%0%1%3%10%0%0%0%0%0%0%0%0%0%0%0%0%2%0%8%0%0%0%0%0%0%0%1%1%0%0%0%0%1%0%0%0%0%0%0%0%0%1%5%0%0%0%0%0%0%0%0%0.0.0.0
