STEAM_0:0:20825299%Dropbear%2%21%1%20%35.7%1%4339%0%0%0%0%544%0%0%0%1%3%508
STEAM_0:1:41348236%Magnet%1%25%1%13%26.71%1%3093%0%0%0%0%601%0%0%1%0%1%532
STEAM_0:1:21132101%STARBURNS%25%33%1%7%40.37%1%428%0%0%0%0%11046%0%1%23%3%16%1938
STEAM_0:1:24971188%Klinger%21%34%2%3%41.5%1%0%0%0%0%0%8325%0%4%20%4%3%372
STEAM_0:1:6715489%necrosis%23%23%1%10%35.18%1%89%0%0%0%0%8317%0%6%26%2%8%1666
STEAM_0:0:22902522%smash_%22%23%2%7%36.5%1%0%0%0%0%0%8804%0%6%12%4%5%1049
STEAM_0:1:10325827%_bladez%34%19%1%8%44%1%0%0%0%0%0%13464%0%1%32%0%6%2427
STEAM_0:0:36191145%Hybrid_%20%18%2%15%41.79%1%649%0%0%0%0%7323%0%4%31%6%5%1289
STEAM_0:0:15426345%Ferelah%36%13%6%11%55.5%1%0%0%0%0%0%9742%1%4%34%3%10%1036
STEAM_0:0:13992472%juicycaboose%40%17%1%12%55%1%0%0%0%0%0%14174%1%5%45%6%11%1040
STEAM_0:1:25184621%TimTims%3%14%1%47%52%1%5226%3%0%0%0%439%0%0%0%0%4%636
STEAM_0:1:1590251%ickis%15%33%1%9%25.5%1%0%0%0%0%0%9862%0%1%19%0%1%1297
STEAM_0:1:22533796%chpy%25%32%1%2%36%1%0%0%0%0%0%10322%0%3%18%1%12%669
STEAM_0:1:17365867%khao%21%28%2%6%35%1%0%0%0%0%0%9811%0%2%24%2%5%967
STEAM_0:0:6127703%seeker%64%16%2%20%86%1%0%0%0%0%0%21831%0%7%24%6%5%2452
STEAM_0:1:14270640%smokey%10%13%3%30%58.02%1%4474%2%0%0%0%3728%0%0%4%2%7%420
