STEAM_0:1:16965464
STEAM_0:0:6127703
STEAM_0:1:16081983
STEAM_0:0:12594613
STEAM_0:1:10325827
STEAM_0:0:3622998
STEAM_0:0:24499248
STEAM_0:1:22674758
STEAM_0:1:7175436
STEAM_0:0:48086362
STEAM_0:1:101867
