C:\iPGN-Comp\stats-s10\history\26-02-13.txt 1361875040
C:\iPGN-Comp\stats-s10\history\24-02-13.txt 1361702240
C:\iPGN-Comp\stats-s10\history\19-02-13.txt 1361270240
C:\iPGN-Comp\stats-s10\history\18-02-13.txt 1361183841
C:\iPGN-Comp\stats-s10\history\17-02-13.txt 1361097441
C:\iPGN-Comp\stats-s10\history\16-02-13.txt 1361011041
C:\iPGN-Comp\stats-s10\history\15-02-13.txt 1360924641
C:\iPGN-Comp\stats-s10\history\14-02-13.txt 1360838241
C:\iPGN-Comp\stats-s10\history\13-02-13.txt 1360751841
C:\iPGN-Comp\stats-s10\history\12-02-13.txt 1360665441
C:\iPGN-Comp\stats-s10\history\11-02-13.txt 1360579041
C:\iPGN-Comp\stats-s10\history\10-02-13.txt 1360492641
C:\iPGN-Comp\stats-s10\history\09-02-13.txt 1360406241
C:\iPGN-Comp\stats-s10\history\08-02-13.txt 1360319841
C:\iPGN-Comp\stats-s10\history\07-02-13.txt 1360233441
C:\iPGN-Comp\stats-s10\history\06-02-13.txt 1360147041
C:\iPGN-Comp\stats-s10\history\05-02-13.txt 1360060641
C:\iPGN-Comp\stats-s10\history\04-02-13.txt 1359974241
C:\iPGN-Comp\stats-s10\history\03-02-13.txt 1359887841
C:\iPGN-Comp\stats-s10\history\02-02-13.txt 1359801441
C:\iPGN-Comp\stats-s10\history\01-02-13.txt 1359715041
C:\iPGN-Comp\stats-s10\history\31-01-13.txt 1359628640
C:\iPGN-Comp\stats-s10\history\30-01-13.txt 1359542240
C:\iPGN-Comp\stats-s10\history\29-01-13.txt 1359455840
C:\iPGN-Comp\stats-s10\history\28-01-13.txt 1359369440
C:\iPGN-Comp\stats-s10\history\27-01-13.txt 1359283040
C:\iPGN-Comp\stats-s10\history\26-01-13.txt 1359196640
C:\iPGN-Comp\stats-s10\history\25-01-13.txt 1359110240
C:\iPGN-Comp\stats-s10\history\24-01-13.txt 1359023840
C:\iPGN-Comp\stats-s10\history\23-01-13.txt 1358937440
C:\iPGN-Comp\stats-s10\history\22-01-13.txt 1358851040
C:\iPGN-Comp\stats-s10\history\21-01-13.txt 1358764640
C:\iPGN-Comp\stats-s10\history\20-01-13.txt 1358678240
C:\iPGN-Comp\stats-s10\history\19-01-13.txt 1358591840
C:\iPGN-Comp\stats-s10\history\18-01-13.txt 1358505441
C:\iPGN-Comp\stats-s10\history\17-01-13.txt 1358419041
C:\iPGN-Comp\stats-s10\history\16-01-13.txt 1358332641
C:\iPGN-Comp\stats-s10\history\15-01-13.txt 1358246241
C:\iPGN-Comp\stats-s10\history\14-01-13.txt 1358159841
C:\iPGN-Comp\stats-s10\history\13-01-13.txt 1358073441
C:\iPGN-Comp\stats-s10\history\12-01-13.txt 1357987041
C:\iPGN-Comp\stats-s10\history\11-01-13.txt 1357900641
C:\iPGN-Comp\stats-s10\history\10-01-13.txt 1357814241
C:\iPGN-Comp\stats-s10\history\09-01-13.txt 1357727841
C:\iPGN-Comp\stats-s10\history\08-01-13.txt 1357641441
C:\iPGN-Comp\stats-s10\history\07-01-13.txt 1357555041
C:\iPGN-Comp\stats-s10\history\06-01-13.txt 1357468641
C:\iPGN-Comp\stats-s10\history\05-01-13.txt 1357382241
C:\iPGN-Comp\stats-s10\history\04-01-13.txt 1357295841
C:\iPGN-Comp\stats-s10\history\03-01-13.txt 1357209441
C:\iPGN-Comp\stats-s10\history\02-01-13.txt 1357123041
C:\iPGN-Comp\stats-s10\history\01-01-13.txt 1357036641
C:\iPGN-Comp\stats-s10\history\31-12-12.txt 1356950240
C:\iPGN-Comp\stats-s10\history\30-12-12.txt 1356863840
C:\iPGN-Comp\stats-s10\history\29-12-12.txt 1356777440
C:\iPGN-Comp\stats-s10\history\28-12-12.txt 1356691040
C:\iPGN-Comp\stats-s10\history\27-12-12.txt 1356604640
C:\iPGN-Comp\stats-s10\history\26-12-12.txt 1356518240
C:\iPGN-Comp\stats-s10\history\25-12-12.txt 1356431840
C:\iPGN-Comp\stats-s10\history\24-12-12.txt 1356345440
C:\iPGN-Comp\stats-s10\history\23-12-12.txt 1356259040
C:\iPGN-Comp\stats-s10\history\22-12-12.txt 1356172640
C:\iPGN-Comp\stats-s10\history\21-12-12.txt 1356086240
C:\iPGN-Comp\stats-s10\history\20-12-12.txt 1355999840
C:\iPGN-Comp\stats-s10\history\19-12-12.txt 1355913440
C:\iPGN-Comp\stats-s10\history\18-12-12.txt 1355827040
C:\iPGN-Comp\stats-s10\history\17-12-12.txt 1355740641
C:\iPGN-Comp\stats-s10\history\16-12-12.txt 1355654241
C:\iPGN-Comp\stats-s10\history\15-12-12.txt 1355567841
C:\iPGN-Comp\stats-s10\history\14-12-12.txt 1355481441
C:\iPGN-Comp\stats-s10\history\13-12-12.txt 1355395041
C:\iPGN-Comp\stats-s10\history\12-12-12.txt 1355308641
C:\iPGN-Comp\stats-s10\history\11-12-12.txt 1355222241
C:\iPGN-Comp\stats-s10\history\10-12-12.txt 1355135841
C:\iPGN-Comp\stats-s10\history\09-12-12.txt 1355049441
C:\iPGN-Comp\stats-s10\history\08-12-12.txt 1354963041
C:\iPGN-Comp\stats-s10\history\07-12-12.txt 1354876641
C:\iPGN-Comp\stats-s10\history\06-12-12.txt 1354790241
C:\iPGN-Comp\stats-s10\history\05-12-12.txt 1354703841
C:\iPGN-Comp\stats-s10\history\04-12-12.txt 1354617441
C:\iPGN-Comp\stats-s10\history\03-12-12.txt 1354531041
C:\iPGN-Comp\stats-s10\history\02-12-12.txt 1354444641
C:\iPGN-Comp\stats-s10\history\01-12-12.txt 1354358241
C:\iPGN-Comp\stats-s10\history\30-11-12.txt 1354271840
C:\iPGN-Comp\stats-s10\history\29-11-12.txt 1354185440
C:\iPGN-Comp\stats-s10\history\28-11-12.txt 1354099040
C:\iPGN-Comp\stats-s10\history\27-11-12.txt 1354012640
C:\iPGN-Comp\stats-s10\history\26-11-12.txt 1353926240
C:\iPGN-Comp\stats-s10\history\25-11-12.txt 1353839840
C:\iPGN-Comp\stats-s10\history\24-11-12.txt 1353753440
C:\iPGN-Comp\stats-s10\history\23-11-12.txt 1353667040
C:\iPGN-Comp\stats-s10\history\22-11-12.txt 1353580640
C:\iPGN-Comp\stats-s10\history\21-11-12.txt 1353494240
C:\iPGN-Comp\stats-s10\history\20-11-12.txt 1353407840
C:\iPGN-Comp\stats-s10\history\19-11-12.txt 1353321440
C:\iPGN-Comp\stats-s10\history\18-11-12.txt 1353235041
C:\iPGN-Comp\stats-s10\history\17-11-12.txt 1353148641
C:\iPGN-Comp\stats-s10\history\16-11-12.txt 1353062241
C:\iPGN-Comp\stats-s10\history\15-11-12.txt 1352975841
C:\iPGN-Comp\stats-s10\history\14-11-12.txt 1352889441
C:\iPGN-Comp\stats-s10\history\13-11-12.txt 1352803041
C:\iPGN-Comp\stats-s10\history\12-11-12.txt 1352716641
C:\iPGN-Comp\stats-s10\history\11-11-12.txt 1352630241
C:\iPGN-Comp\stats-s10\history\10-11-12.txt 1352543841
C:\iPGN-Comp\stats-s10\history\09-11-12.txt 1352457441
C:\iPGN-Comp\stats-s10\history\08-11-12.txt 1352371041
C:\iPGN-Comp\stats-s10\history\07-11-12.txt 1352284641
C:\iPGN-Comp\stats-s10\history\06-11-12.txt 1352198241
C:\iPGN-Comp\stats-s10\history\05-11-12.txt 1352111841
C:\iPGN-Comp\stats-s10\history\04-11-12.txt 1352025441
C:\iPGN-Comp\stats-s10\history\03-11-12.txt 1351939041
C:\iPGN-Comp\stats-s10\history\02-11-12.txt 1351852641
C:\iPGN-Comp\stats-s10\history\01-11-12.txt 1351766241
C:\iPGN-Comp\stats-s10\history\31-10-12.txt 1351679840
C:\iPGN-Comp\stats-s10\history\30-10-12.txt 1351593440
C:\iPGN-Comp\stats-s10\history\29-10-12.txt 1351507040
C:\iPGN-Comp\stats-s10\history\28-10-12.txt 1351420640
C:\iPGN-Comp\stats-s10\history\27-10-12.txt 1351334240
C:\iPGN-Comp\stats-s10\history\26-10-12.txt 1351247840
C:\iPGN-Comp\stats-s10\history\25-10-12.txt 1351161440
C:\iPGN-Comp\stats-s10\history\24-10-12.txt 1351075040
C:\iPGN-Comp\stats-s10\history\23-10-12.txt 1350988640
C:\iPGN-Comp\stats-s10\history\22-10-12.txt 1350902240
C:\iPGN-Comp\stats-s10\history\21-10-12.txt 1350815840
C:\iPGN-Comp\stats-s10\history\20-10-12.txt 1350729440
C:\iPGN-Comp\stats-s10\history\19-10-12.txt 1350643040
C:\iPGN-Comp\stats-s10\history\18-10-12.txt 1350556641
C:\iPGN-Comp\stats-s10\history\17-10-12.txt 1350470241
C:\iPGN-Comp\stats-s10\history\16-10-12.txt 1350383841
C:\iPGN-Comp\stats-s10\history\15-10-12.txt 1350297441
C:\iPGN-Comp\stats-s10\history\14-10-12.txt 1350211041
C:\iPGN-Comp\stats-s10\history\13-10-12.txt 1350124641
C:\iPGN-Comp\stats-s10\history\12-10-12.txt 1350038241
C:\iPGN-Comp\stats-s10\history\11-10-12.txt 1349951841
C:\iPGN-Comp\stats-s10\history\10-10-12.txt 1349865441
C:\iPGN-Comp\stats-s10\history\09-10-12.txt 1349779041
C:\iPGN-Comp\stats-s10\history\08-10-12.txt 1349692641
C:\iPGN-Comp\stats-s10\history\07-10-12.txt 1349606241
C:\iPGN-Comp\stats-s10\history\06-10-12.txt 1349519841
C:\iPGN-Comp\stats-s10\history\05-10-12.txt 1349433441
C:\iPGN-Comp\stats-s10\history\04-10-12.txt 1349347041
C:\iPGN-Comp\stats-s10\history\03-10-12.txt 1349260641
C:\iPGN-Comp\stats-s10\history\02-10-12.txt 1349174241
C:\iPGN-Comp\stats-s10\history\01-10-12.txt 1349087841
C:\iPGN-Comp\stats-s10\history\30-09-12.txt 1349001440
C:\iPGN-Comp\stats-s10\history\29-09-12.txt 1348915040
C:\iPGN-Comp\stats-s10\history\28-09-12.txt 1348828640
C:\iPGN-Comp\stats-s10\history\27-09-12.txt 1348742240
C:\iPGN-Comp\stats-s10\history\26-09-12.txt 1348655840
C:\iPGN-Comp\stats-s10\history\25-09-12.txt 1348569440
C:\iPGN-Comp\stats-s10\history\24-09-12.txt 1348483040
C:\iPGN-Comp\stats-s10\history\23-09-12.txt 1348396640
C:\iPGN-Comp\stats-s10\history\22-09-12.txt 1348310240
C:\iPGN-Comp\stats-s10\history\21-09-12.txt 1348223840
C:\iPGN-Comp\stats-s10\history\20-09-12.txt 1348137440
C:\iPGN-Comp\stats-s10\history\19-09-12.txt 1348051040
C:\iPGN-Comp\stats-s10\history\18-09-12.txt 1347964641
C:\iPGN-Comp\stats-s10\history\17-09-12.txt 1347878241
C:\iPGN-Comp\stats-s10\history\16-09-12.txt 1347791841
C:\iPGN-Comp\stats-s10\history\15-09-12.txt 1347705441
C:\iPGN-Comp\stats-s10\history\14-09-12.txt 1347619041
C:\iPGN-Comp\stats-s10\history\13-09-12.txt 1347532641
C:\iPGN-Comp\stats-s10\history\12-09-12.txt 1347446241
C:\iPGN-Comp\stats-s10\history\11-09-12.txt 1347359841
C:\iPGN-Comp\stats-s10\history\10-09-12.txt 1347273441
C:\iPGN-Comp\stats-s10\history\09-09-12.txt 1347187041
C:\iPGN-Comp\stats-s10\history\08-09-12.txt 1347100641
C:\iPGN-Comp\stats-s10\history\07-09-12.txt 1347014241
C:\iPGN-Comp\stats-s10\history\06-09-12.txt 1346927841
C:\iPGN-Comp\stats-s10\history\05-09-12.txt 1346841441
C:\iPGN-Comp\stats-s10\history\04-09-12.txt 1346755041
C:\iPGN-Comp\stats-s10\history\03-09-12.txt 1346668641
C:\iPGN-Comp\stats-s10\history\02-09-12.txt 1346582241
C:\iPGN-Comp\stats-s10\history\01-09-12.txt 1346495841
C:\iPGN-Comp\stats-s10\history\31-08-12.txt 1346409440
C:\iPGN-Comp\stats-s10\history\30-08-12.txt 1346323040
C:\iPGN-Comp\stats-s10\history\29-08-12.txt 1346236640
C:\iPGN-Comp\stats-s10\history\28-08-12.txt 1346150240
C:\iPGN-Comp\stats-s10\history\27-08-12.txt 1346063840
C:\iPGN-Comp\stats-s10\history\26-08-12.txt 1345977440
C:\iPGN-Comp\stats-s10\history\25-08-12.txt 1345891040
C:\iPGN-Comp\stats-s10\history\24-08-12.txt 1345804640
C:\iPGN-Comp\stats-s10\history\23-08-12.txt 1345718240
C:\iPGN-Comp\stats-s10\history\22-08-12.txt 1345631840
C:\iPGN-Comp\stats-s10\history\21-08-12.txt 1345545440
C:\iPGN-Comp\stats-s10\history\20-08-12.txt 1345459040
C:\iPGN-Comp\stats-s10\history\19-08-12.txt 1345372640
C:\iPGN-Comp\stats-s10\history\18-08-12.txt 1345286241
C:\iPGN-Comp\stats-s10\history\17-08-12.txt 1345199841
C:\iPGN-Comp\stats-s10\history\16-08-12.txt 1345113441
C:\iPGN-Comp\stats-s10\history\15-08-12.txt 1345027041
C:\iPGN-Comp\stats-s10\history\14-08-12.txt 1344940641
C:\iPGN-Comp\stats-s10\history\13-08-12.txt 1344854241
C:\iPGN-Comp\stats-s10\history\12-08-12.txt 1344767841
C:\iPGN-Comp\stats-s10\history\11-08-12.txt 1344681441
C:\iPGN-Comp\stats-s10\history\10-08-12.txt 1344595041
C:\iPGN-Comp\stats-s10\history\09-08-12.txt 1344508641
C:\iPGN-Comp\stats-s10\history\08-08-12.txt 1344422241
C:\iPGN-Comp\stats-s10\history\07-08-12.txt 1344335841
C:\iPGN-Comp\stats-s10\history\06-08-12.txt 1344249441
C:\iPGN-Comp\stats-s10\history\05-08-12.txt 1344163041
C:\iPGN-Comp\stats-s10\history\04-08-12.txt 1344076641
C:\iPGN-Comp\stats-s10\history\03-08-12.txt 1343990241
C:\iPGN-Comp\stats-s10\history\02-08-12.txt 1343903841
C:\iPGN-Comp\stats-s10\history\01-08-12.txt 1343817441
C:\iPGN-Comp\stats-s10\history\31-07-12.txt 1343731040
C:\iPGN-Comp\stats-s10\history\30-07-12.txt 1343644640
C:\iPGN-Comp\stats-s10\history\29-07-12.txt 1343558240
C:\iPGN-Comp\stats-s10\history\28-07-12.txt 1343471840
C:\iPGN-Comp\stats-s10\history\27-07-12.txt 1343385440
C:\iPGN-Comp\stats-s10\history\26-07-12.txt 1343299040
C:\iPGN-Comp\stats-s10\history\25-07-12.txt 1343212640
C:\iPGN-Comp\stats-s10\history\24-07-12.txt 1343126240
C:\iPGN-Comp\stats-s10\history\23-07-12.txt 1343039840
C:\iPGN-Comp\stats-s10\history\22-07-12.txt 1342953440
C:\iPGN-Comp\stats-s10\history\21-07-12.txt 1342867040
C:\iPGN-Comp\stats-s10\history\20-07-12.txt 1342780640
C:\iPGN-Comp\stats-s10\history\19-07-12.txt 1342694240
C:\iPGN-Comp\stats-s10\history\18-07-12.txt 1342607841
C:\iPGN-Comp\stats-s10\history\17-07-12.txt 1342521441
C:\iPGN-Comp\stats-s10\history\16-07-12.txt 1342435041
C:\iPGN-Comp\stats-s10\history\15-07-12.txt 1342348641
C:\iPGN-Comp\stats-s10\history\14-07-12.txt 1342262241
C:\iPGN-Comp\stats-s10\history\13-07-12.txt 1342175841
C:\iPGN-Comp\stats-s10\history\12-07-12.txt 1342089441
C:\iPGN-Comp\stats-s10\history\11-07-12.txt 1342003041
C:\iPGN-Comp\stats-s10\history\10-07-12.txt 1341916641
C:\iPGN-Comp\stats-s10\history\09-07-12.txt 1341830241
C:\iPGN-Comp\stats-s10\history\08-07-12.txt 1341743841
C:\iPGN-Comp\stats-s10\history\07-07-12.txt 1341657441
C:\iPGN-Comp\stats-s10\history\06-07-12.txt 1341571041
C:\iPGN-Comp\stats-s10\history\05-07-12.txt 1341484641
C:\iPGN-Comp\stats-s10\history\04-07-12.txt 1341398241
C:\iPGN-Comp\stats-s10\history\03-07-12.txt 1341311841
C:\iPGN-Comp\stats-s10\history\02-07-12.txt 1341225441
C:\iPGN-Comp\stats-s10\history\01-07-12.txt 1341139041
C:\iPGN-Comp\stats-s10\history\30-06-12.txt 1341052640
C:\iPGN-Comp\stats-s10\history\29-06-12.txt 1340966240
C:\iPGN-Comp\stats-s10\history\28-06-12.txt 1340879840
C:\iPGN-Comp\stats-s10\history\27-06-12.txt 1340793440
C:\iPGN-Comp\stats-s10\history\26-06-12.txt 1340707040
C:\iPGN-Comp\stats-s10\history\25-06-12.txt 1340620640
C:\iPGN-Comp\stats-s10\history\24-06-12.txt 1340534240
C:\iPGN-Comp\stats-s10\history\23-06-12.txt 1340447840
C:\iPGN-Comp\stats-s10\history\22-06-12.txt 1340361440
C:\iPGN-Comp\stats-s10\history\21-06-12.txt 1340275040
C:\iPGN-Comp\stats-s10\history\20-06-12.txt 1340188640
C:\iPGN-Comp\stats-s10\history\19-06-12.txt 1340102240
C:\iPGN-Comp\stats-s10\history\18-06-12.txt 1340015841
C:\iPGN-Comp\stats-s10\history\17-06-12.txt 1339929441
C:\iPGN-Comp\stats-s10\history\16-06-12.txt 1339843041
C:\iPGN-Comp\stats-s10\history\15-06-12.txt 1339756641
C:\iPGN-Comp\stats-s10\history\14-06-12.txt 1339670241
C:\iPGN-Comp\stats-s10\history\13-06-12.txt 1339583841
C:\iPGN-Comp\stats-s10\history\12-06-12.txt 1339497441
C:\iPGN-Comp\stats-s10\history\11-06-12.txt 1339411041
C:\iPGN-Comp\stats-s10\history\10-06-12.txt 1339324641
C:\iPGN-Comp\stats-s10\history\09-06-12.txt 1339238241
C:\iPGN-Comp\stats-s10\history\08-06-12.txt 1339151841
C:\iPGN-Comp\stats-s10\history\07-06-12.txt 1339065441
C:\iPGN-Comp\stats-s10\history\06-06-12.txt 1338979041
C:\iPGN-Comp\stats-s10\history\05-06-12.txt 1338892641
C:\iPGN-Comp\stats-s10\history\04-06-12.txt 1338806241
C:\iPGN-Comp\stats-s10\history\03-06-12.txt 1338719841
C:\iPGN-Comp\stats-s10\history\02-06-12.txt 1338633441
C:\iPGN-Comp\stats-s10\history\01-06-12.txt 1338547041
C:\iPGN-Comp\stats-s10\history\31-05-12.txt 1338460640
C:\iPGN-Comp\stats-s10\history\30-05-12.txt 1338374240
C:\iPGN-Comp\stats-s10\history\29-05-12.txt 1338287840
C:\iPGN-Comp\stats-s10\history\28-05-12.txt 1338201440
C:\iPGN-Comp\stats-s10\history\27-05-12.txt 1338115040
C:\iPGN-Comp\stats-s10\history\26-05-12.txt 1338028640
C:\iPGN-Comp\stats-s10\history\25-05-12.txt 1337942240
C:\iPGN-Comp\stats-s10\history\24-05-12.txt 1337855840
C:\iPGN-Comp\stats-s10\history\23-05-12.txt 1337769440
C:\iPGN-Comp\stats-s10\history\22-05-12.txt 1337683040
C:\iPGN-Comp\stats-s10\history\21-05-12.txt 1337596640
C:\iPGN-Comp\stats-s10\history\20-05-12.txt 1337510240
C:\iPGN-Comp\stats-s10\history\19-05-12.txt 1337423840
C:\iPGN-Comp\stats-s10\history\18-05-12.txt 1337337441
C:\iPGN-Comp\stats-s10\history\17-05-12.txt 1337251041
C:\iPGN-Comp\stats-s10\history\16-05-12.txt 1337164641
C:\iPGN-Comp\stats-s10\history\15-05-12.txt 1337078241
C:\iPGN-Comp\stats-s10\history\14-05-12.txt 1336991841
C:\iPGN-Comp\stats-s10\history\13-05-12.txt 1336905441
C:\iPGN-Comp\stats-s10\history\12-05-12.txt 1336819041
C:\iPGN-Comp\stats-s10\history\11-05-12.txt 1336732641
C:\iPGN-Comp\stats-s10\history\10-05-12.txt 1336646241
C:\iPGN-Comp\stats-s10\history\09-05-12.txt 1336559841
C:\iPGN-Comp\stats-s10\history\08-05-12.txt 1336473441
C:\iPGN-Comp\stats-s10\history\07-05-12.txt 1336387041
C:\iPGN-Comp\stats-s10\history\06-05-12.txt 1336300641
C:\iPGN-Comp\stats-s10\history\05-05-12.txt 1336214241
C:\iPGN-Comp\stats-s10\history\04-05-12.txt 1336127841
C:\iPGN-Comp\stats-s10\history\03-05-12.txt 1336041441
C:\iPGN-Comp\stats-s10\history\02-05-12.txt 1335955041
C:\iPGN-Comp\stats-s10\history\01-05-12.txt 1335868641
C:\iPGN-Comp\stats-s10\history\30-04-12.txt 1335782240
C:\iPGN-Comp\stats-s10\history\29-04-12.txt 1335695840
C:\iPGN-Comp\stats-s10\history\28-04-12.txt 1335609440
C:\iPGN-Comp\stats-s10\history\27-04-12.txt 1335523040
C:\iPGN-Comp\stats-s10\history\26-04-12.txt 1335436640
C:\iPGN-Comp\stats-s10\history\25-04-12.txt 1335350240
C:\iPGN-Comp\stats-s10\history\24-04-12.txt 1335263840
C:\iPGN-Comp\stats-s10\history\23-04-12.txt 1335177440
C:\iPGN-Comp\stats-s10\history\22-04-12.txt 1335091040
C:\iPGN-Comp\stats-s10\history\21-04-12.txt 1335004640
C:\iPGN-Comp\stats-s10\history\20-04-12.txt 1334918240
C:\iPGN-Comp\stats-s10\history\19-04-12.txt 1334831840
C:\iPGN-Comp\stats-s10\history\18-04-12.txt 1334745441
C:\iPGN-Comp\stats-s10\history\17-04-12.txt 1334659041
C:\iPGN-Comp\stats-s10\history\16-04-12.txt 1334572641
C:\iPGN-Comp\stats-s10\history\15-04-12.txt 1334486241
C:\iPGN-Comp\stats-s10\history\14-04-12.txt 1334399841
C:\iPGN-Comp\stats-s10\history\13-04-12.txt 1334313441
C:\iPGN-Comp\stats-s10\history\12-04-12.txt 1334227041
C:\iPGN-Comp\stats-s10\history\11-04-12.txt 1334140641
C:\iPGN-Comp\stats-s10\history\10-04-12.txt 1334054241
C:\iPGN-Comp\stats-s10\history\09-04-12.txt 1333967841
C:\iPGN-Comp\stats-s10\history\08-04-12.txt 1333881441
C:\iPGN-Comp\stats-s10\history\07-04-12.txt 1333795041
C:\iPGN-Comp\stats-s10\history\06-04-12.txt 1333708641
C:\iPGN-Comp\stats-s10\history\05-04-12.txt 1333622241
C:\iPGN-Comp\stats-s10\history\04-04-12.txt 1333535841
C:\iPGN-Comp\stats-s10\history\03-04-12.txt 1333449441
C:\iPGN-Comp\stats-s10\history\02-04-12.txt 1333363041
C:\iPGN-Comp\stats-s10\history\01-04-12.txt 1333276641
C:\iPGN-Comp\stats-s10\history\31-03-12.txt 1333190240
C:\iPGN-Comp\stats-s10\history\30-03-12.txt 1333103840
C:\iPGN-Comp\stats-s10\history\29-03-12.txt 1333017440
C:\iPGN-Comp\stats-s10\history\28-03-12.txt 1332931040
C:\iPGN-Comp\stats-s10\history\27-03-12.txt 1332844640
C:\iPGN-Comp\stats-s10\history\26-03-12.txt 1332758240
C:\iPGN-Comp\stats-s10\history\25-03-12.txt 1332671840
C:\iPGN-Comp\stats-s10\history\24-03-12.txt 1332585440
C:\iPGN-Comp\stats-s10\history\23-03-12.txt 1332499040
C:\iPGN-Comp\stats-s10\history\22-03-12.txt 1332412640
C:\iPGN-Comp\stats-s10\history\21-03-12.txt 1332326240
C:\iPGN-Comp\stats-s10\history\20-03-12.txt 1332239840
C:\iPGN-Comp\stats-s10\history\19-03-12.txt 1332153440
C:\iPGN-Comp\stats-s10\history\18-03-12.txt 1332067041
C:\iPGN-Comp\stats-s10\history\17-03-12.txt 1331980641
C:\iPGN-Comp\stats-s10\history\16-03-12.txt 1331894241
C:\iPGN-Comp\stats-s10\history\15-03-12.txt 1331807841
C:\iPGN-Comp\stats-s10\history\14-03-12.txt 1331721441
C:\iPGN-Comp\stats-s10\history\13-03-12.txt 1331635041
C:\iPGN-Comp\stats-s10\history\12-03-12.txt 1331548641
C:\iPGN-Comp\stats-s10\history\11-03-12.txt 1331462241
C:\iPGN-Comp\stats-s10\history\10-03-12.txt 1331375841
C:\iPGN-Comp\stats-s10\history\09-03-12.txt 1331289441
C:\iPGN-Comp\stats-s10\history\08-03-12.txt 1331203041
C:\iPGN-Comp\stats-s10\history\07-03-12.txt 1331116641
C:\iPGN-Comp\stats-s10\history\06-03-12.txt 1331030241
C:\iPGN-Comp\stats-s10\history\05-03-12.txt 1330943841
C:\iPGN-Comp\stats-s10\history\04-03-12.txt 1330857441
C:\iPGN-Comp\stats-s10\history\03-03-12.txt 1330771041
C:\iPGN-Comp\stats-s10\history\02-03-12.txt 1330684641
C:\iPGN-Comp\stats-s10\history\01-03-12.txt 1330598241
C:\iPGN-Comp\stats-s10\history\29-02-12.txt 1330511840
C:\iPGN-Comp\stats-s10\history\28-02-12.txt 1330425440
C:\iPGN-Comp\stats-s10\history\27-02-12.txt 1330339040
C:\iPGN-Comp\stats-s10\history\26-02-12.txt 1330252640
C:\iPGN-Comp\stats-s10\history\25-02-12.txt 1330166240
C:\iPGN-Comp\stats-s10\history\24-02-12.txt 1330079840
C:\iPGN-Comp\stats-s10\history\23-02-12.txt 1329993440
C:\iPGN-Comp\stats-s10\history\22-02-12.txt 1329907040
C:\iPGN-Comp\stats-s10\history\21-02-12.txt 1329820640
C:\iPGN-Comp\stats-s10\history\20-02-12.txt 1329734240
C:\iPGN-Comp\stats-s10\history\19-02-12.txt 1329647840
C:\iPGN-Comp\stats-s10\history\18-02-12.txt 1329561441
C:\iPGN-Comp\stats-s10\history\17-02-12.txt 1329475041
C:\iPGN-Comp\stats-s10\history\16-02-12.txt 1329388641
C:\iPGN-Comp\stats-s10\history\15-02-12.txt 1329302241
C:\iPGN-Comp\stats-s10\history\14-02-12.txt 1329215841
C:\iPGN-Comp\stats-s10\history\13-02-12.txt 1329129441
C:\iPGN-Comp\stats-s10\history\12-02-12.txt 1329043041
C:\iPGN-Comp\stats-s10\history\11-02-12.txt 1328956641
C:\iPGN-Comp\stats-s10\history\10-02-12.txt 1328870241
C:\iPGN-Comp\stats-s10\history\09-02-12.txt 1328783841
C:\iPGN-Comp\stats-s10\history\08-02-12.txt 1328697441
C:\iPGN-Comp\stats-s10\history\07-02-12.txt 1328611041
C:\iPGN-Comp\stats-s10\history\06-02-12.txt 1328524641
C:\iPGN-Comp\stats-s10\history\05-02-12.txt 1328438241
C:\iPGN-Comp\stats-s10\history\04-02-12.txt 1328351841
C:\iPGN-Comp\stats-s10\history\03-02-12.txt 1328265441
C:\iPGN-Comp\stats-s10\history\02-02-12.txt 1328179041
C:\iPGN-Comp\stats-s10\history\01-02-12.txt 1328092641
C:\iPGN-Comp\stats-s10\history\31-01-12.txt 1328006240
C:\iPGN-Comp\stats-s10\history\30-01-12.txt 1327919840
C:\iPGN-Comp\stats-s10\history\29-01-12.txt 1327833440
C:\iPGN-Comp\stats-s10\history\28-01-12.txt 1327747040
C:\iPGN-Comp\stats-s10\history\27-01-12.txt 1327660640
C:\iPGN-Comp\stats-s10\history\26-01-12.txt 1327574240
C:\iPGN-Comp\stats-s10\history\25-01-12.txt 1327487840
C:\iPGN-Comp\stats-s10\history\24-01-12.txt 1327401440
C:\iPGN-Comp\stats-s10\history\23-01-12.txt 1327315040
C:\iPGN-Comp\stats-s10\history\22-01-12.txt 1327228640
C:\iPGN-Comp\stats-s10\history\21-01-12.txt 1327142240
C:\iPGN-Comp\stats-s10\history\20-01-12.txt 1327055840
C:\iPGN-Comp\stats-s10\history\19-01-12.txt 1326969440
C:\iPGN-Comp\stats-s10\history\18-01-12.txt 1326883041
C:\iPGN-Comp\stats-s10\history\17-01-12.txt 1326796641
C:\iPGN-Comp\stats-s10\history\16-01-12.txt 1326710241
C:\iPGN-Comp\stats-s10\history\15-01-12.txt 1326623841
C:\iPGN-Comp\stats-s10\history\14-01-12.txt 1326537441
C:\iPGN-Comp\stats-s10\history\13-01-12.txt 1326451041
C:\iPGN-Comp\stats-s10\history\12-01-12.txt 1326364641
C:\iPGN-Comp\stats-s10\history\11-01-12.txt 1326278241
C:\iPGN-Comp\stats-s10\history\10-01-12.txt 1326191841
C:\iPGN-Comp\stats-s10\history\09-01-12.txt 1326105441
C:\iPGN-Comp\stats-s10\history\08-01-12.txt 1326019041
C:\iPGN-Comp\stats-s10\history\07-01-12.txt 1325932641
C:\iPGN-Comp\stats-s10\history\06-01-12.txt 1325846241
C:\iPGN-Comp\stats-s10\history\05-01-12.txt 1325759841
C:\iPGN-Comp\stats-s10\history\04-01-12.txt 1325673441
C:\iPGN-Comp\stats-s10\history\03-01-12.txt 1325587041
C:\iPGN-Comp\stats-s10\history\02-01-12.txt 1325500641
C:\iPGN-Comp\stats-s10\history\01-01-12.txt 1325414241
C:\iPGN-Comp\stats-s10\history\31-12-11.txt 1325327840
C:\iPGN-Comp\stats-s10\history\30-12-11.txt 1325241440
C:\iPGN-Comp\stats-s10\history\29-12-11.txt 1325155040
C:\iPGN-Comp\stats-s10\history\28-12-11.txt 1325068640
C:\iPGN-Comp\stats-s10\history\27-12-11.txt 1324982240
C:\iPGN-Comp\stats-s10\history\26-12-11.txt 1324895840
C:\iPGN-Comp\stats-s10\history\25-12-11.txt 1324809440
C:\iPGN-Comp\stats-s10\history\24-12-11.txt 1324723040
C:\iPGN-Comp\stats-s10\history\23-12-11.txt 1324636640
C:\iPGN-Comp\stats-s10\history\22-12-11.txt 1324550240
C:\iPGN-Comp\stats-s10\history\21-12-11.txt 1324463840
C:\iPGN-Comp\stats-s10\history\20-12-11.txt 1324377440
C:\iPGN-Comp\stats-s10\history\19-12-11.txt 1324291040
C:\iPGN-Comp\stats-s10\history\18-12-11.txt 1324204640
C:\iPGN-Comp\stats-s10\history\17-12-11.txt 1324118241
C:\iPGN-Comp\stats-s10\history\16-12-11.txt 1324031841
C:\iPGN-Comp\stats-s10\history\15-12-11.txt 1323945441
C:\iPGN-Comp\stats-s10\history\14-12-11.txt 1323859041
C:\iPGN-Comp\stats-s10\history\13-12-11.txt 1323772641
C:\iPGN-Comp\stats-s10\history\12-12-11.txt 1323686241
C:\iPGN-Comp\stats-s10\history\11-12-11.txt 1323599841
C:\iPGN-Comp\stats-s10\history\10-12-11.txt 1323513441
C:\iPGN-Comp\stats-s10\history\09-12-11.txt 1323427041
C:\iPGN-Comp\stats-s10\history\08-12-11.txt 1323340641
C:\iPGN-Comp\stats-s10\history\07-12-11.txt 1323254241
C:\iPGN-Comp\stats-s10\history\06-12-11.txt 1323167841
C:\iPGN-Comp\stats-s10\history\05-12-11.txt 1323081441
C:\iPGN-Comp\stats-s10\history\04-12-11.txt 1322995041
C:\iPGN-Comp\stats-s10\history\03-12-11.txt 1322908641
C:\iPGN-Comp\stats-s10\history\02-12-11.txt 1322822241
C:\iPGN-Comp\stats-s10\history\01-12-11.txt 1322735841
C:\iPGN-Comp\stats-s10\history\30-11-11.txt 1322649440
C:\iPGN-Comp\stats-s10\history\29-11-11.txt 1322563040
C:\iPGN-Comp\stats-s10\history\28-11-11.txt 1322476640
C:\iPGN-Comp\stats-s10\history\27-11-11.txt 1322390240
C:\iPGN-Comp\stats-s10\history\26-11-11.txt 1322303840
C:\iPGN-Comp\stats-s10\history\25-11-11.txt 1322217440
C:\iPGN-Comp\stats-s10\history\24-11-11.txt 1322131040
C:\iPGN-Comp\stats-s10\history\23-11-11.txt 1322044640
C:\iPGN-Comp\stats-s10\history\22-11-11.txt 1321958240
C:\iPGN-Comp\stats-s10\history\21-11-11.txt 1321871840
C:\iPGN-Comp\stats-s10\history\20-11-11.txt 1321785440
C:\iPGN-Comp\stats-s10\history\19-11-11.txt 1321699040
C:\iPGN-Comp\stats-s10\history\18-11-11.txt 1321612641
C:\iPGN-Comp\stats-s10\history\17-11-11.txt 1321526241
C:\iPGN-Comp\stats-s10\history\16-11-11.txt 1321439841
C:\iPGN-Comp\stats-s10\history\15-11-11.txt 1321353441
C:\iPGN-Comp\stats-s10\history\14-11-11.txt 1321267041
C:\iPGN-Comp\stats-s10\history\13-11-11.txt 1321180641
C:\iPGN-Comp\stats-s10\history\12-11-11.txt 1321094241
C:\iPGN-Comp\stats-s10\history\11-11-11.txt 1321007841
C:\iPGN-Comp\stats-s10\history\10-11-11.txt 1320921441
C:\iPGN-Comp\stats-s10\history\09-11-11.txt 1320835041
C:\iPGN-Comp\stats-s10\history\08-11-11.txt 1320748641
C:\iPGN-Comp\stats-s10\history\07-11-11.txt 1320662241
C:\iPGN-Comp\stats-s10\history\06-11-11.txt 1320575841
C:\iPGN-Comp\stats-s10\history\05-11-11.txt 1320489441
C:\iPGN-Comp\stats-s10\history\04-11-11.txt 1320403041
C:\iPGN-Comp\stats-s10\history\03-11-11.txt 1320316641
C:\iPGN-Comp\stats-s10\history\02-11-11.txt 1320230241
C:\iPGN-Comp\stats-s10\history\01-11-11.txt 1320143841
C:\iPGN-Comp\stats-s10\history\31-10-11.txt 1320057440
C:\iPGN-Comp\stats-s10\history\30-10-11.txt 1319971040
C:\iPGN-Comp\stats-s10\history\29-10-11.txt 1319884640
C:\iPGN-Comp\stats-s10\history\28-10-11.txt 1319798240
C:\iPGN-Comp\stats-s10\history\27-10-11.txt 1319711840
C:\iPGN-Comp\stats-s10\history\26-10-11.txt 1319625440
C:\iPGN-Comp\stats-s10\history\25-10-11.txt 1319539040
C:\iPGN-Comp\stats-s10\history\24-10-11.txt 1319452640
C:\iPGN-Comp\stats-s10\history\23-10-11.txt 1319366240
C:\iPGN-Comp\stats-s10\history\22-10-11.txt 1319279840
C:\iPGN-Comp\stats-s10\history\21-10-11.txt 1319193440
C:\iPGN-Comp\stats-s10\history\20-10-11.txt 1319107040
C:\iPGN-Comp\stats-s10\history\19-10-11.txt 1319020640
C:\iPGN-Comp\stats-s10\history\18-10-11.txt 1318934241
C:\iPGN-Comp\stats-s10\history\17-10-11.txt 1318847841
C:\iPGN-Comp\stats-s10\history\16-10-11.txt 1318761441
C:\iPGN-Comp\stats-s10\history\15-10-11.txt 1318675041
C:\iPGN-Comp\stats-s10\history\14-10-11.txt 1318588641
C:\iPGN-Comp\stats-s10\history\13-10-11.txt 1318502241
C:\iPGN-Comp\stats-s10\history\12-10-11.txt 1318415841
C:\iPGN-Comp\stats-s10\history\11-10-11.txt 1318329441
C:\iPGN-Comp\stats-s10\history\10-10-11.txt 1318243041
C:\iPGN-Comp\stats-s10\history\09-10-11.txt 1318156641
C:\iPGN-Comp\stats-s10\history\08-10-11.txt 1318070241
C:\iPGN-Comp\stats-s10\history\07-10-11.txt 1317983841
C:\iPGN-Comp\stats-s10\history\06-10-11.txt 1317897441
C:\iPGN-Comp\stats-s10\history\05-10-11.txt 1317811041
C:\iPGN-Comp\stats-s10\history\04-10-11.txt 1317724641
C:\iPGN-Comp\stats-s10\history\03-10-11.txt 1317638241
C:\iPGN-Comp\stats-s10\history\02-10-11.txt 1317551841
C:\iPGN-Comp\stats-s10\history\01-10-11.txt 1317465441
C:\iPGN-Comp\stats-s10\history\30-09-11.txt 1317379040
C:\iPGN-Comp\stats-s10\history\29-09-11.txt 1317292640
C:\iPGN-Comp\stats-s10\history\28-09-11.txt 1317206240
C:\iPGN-Comp\stats-s10\history\27-09-11.txt 1317119840
C:\iPGN-Comp\stats-s10\history\26-09-11.txt 1317033440
C:\iPGN-Comp\stats-s10\history\25-09-11.txt 1316947040
C:\iPGN-Comp\stats-s10\history\24-09-11.txt 1316860640
C:\iPGN-Comp\stats-s10\history\23-09-11.txt 1316774240
C:\iPGN-Comp\stats-s10\history\22-09-11.txt 1316687840
C:\iPGN-Comp\stats-s10\history\21-09-11.txt 1316601440
C:\iPGN-Comp\stats-s10\history\20-09-11.txt 1316515040
C:\iPGN-Comp\stats-s10\history\19-09-11.txt 1316428640
