STEAM_0:0:870338%0%0%0%11%25%1957%2368%30%6%9%9%6%1%0%1%1%7%4%11%14%0%0%0%1%9%0%0%0%0%0%0%0%0%0%0%0%0%4%6%0%0%0%0%0%0%1%0%0%0%0%0%0%0%0%0%0%0%0%0%0%0%0%0%120.144.138.9
STEAM_0:0:315700%0%0%0%27%22%2902%2264%30%6%9%9%6%0%0%1%2%12%15%12%10%0%1%1%4%12%0%0%0%1%0%0%0%0%0%0%0%0%12%4%4%3%1%2%0%0%0%1%0%0%0%0%0%0%0%0%0%0%0%0%0%0%0%0%144.132.100.5
STEAM_0:1:8927636%0%0%0%19%23%2445%2417%30%6%9%9%6%0%0%0%0%9%10%11%12%0%0%1%3%10%0%0%0%0%0%0%0%0%0%0%0%0%6%9%0%2%1%1%0%0%0%0%0%0%0%0%0%0%0%0%0%0%0%0%0%0%0%0%60.241.89.82
STEAM_0:1:14737758%0%0%0%16%22%1614%2260%30%6%9%9%6%0%0%0%3%10%6%12%10%0%0%0%4%8%0%0%0%0%0%0%0%0%0%0%0%0%5%1%6%2%1%0%0%0%1%0%0%0%0%0%0%0%0%0%0%0%0%0%0%0%0%0%123.211.109.43
STEAM_0:1:357457%0%0%0%32%18%2845%2238%30%6%9%9%6%0%0%0%2%13%19%9%9%0%0%2%7%12%0%1%0%0%0%0%0%0%0%0%0%0%12%8%0%2%2%7%0%0%0%1%0%0%0%0%0%0%0%0%0%0%0%0%0%0%0%0%121.44.57.47
STEAM_0:0:7644170%0%0%0%17%22%1671%2399%30%6%9%9%6%0%0%0%1%7%10%9%13%0%0%0%5%7%0%0%0%0%0%0%0%0%0%0%0%0%3%0%10%1%1%0%2%0%0%0%0%0%0%0%0%0%0%0%0%0%0%0%0%0%0%0%60.242.94.1
STEAM_0:1:25858134%0%0%0%29%21%3222%2442%30%6%9%9%6%0%0%0%0%12%17%8%13%0%2%1%6%6%0%0%1%0%0%0%0%0%0%0%0%0%13%4%7%0%0%2%0%0%2%1%0%0%0%0%0%0%0%0%0%0%0%0%0%0%0%0%202.7.216.150
STEAM_0:1:16256073%0%0%0%11%21%1187%2202%30%6%9%9%6%0%0%0%2%7%4%11%10%0%0%0%1%9%0%0%0%0%0%0%0%0%0%0%0%0%5%3%0%1%0%2%0%0%0%0%0%0%0%0%0%0%0%0%0%0%0%0%0%0%0%0%122.61.183.19
STEAM_0:1:600885%0%0%0%23%18%2085%1924%30%6%9%9%6%0%0%0%1%11%12%9%9%0%0%0%8%7%0%0%0%0%0%0%0%0%0%0%0%0%9%3%6%2%2%1%0%0%0%0%0%0%0%0%0%0%0%0%0%0%0%0%0%0%0%0%122.108.253.186
STEAM_0:1:49986875%0%0%0%29%23%3162%2576%30%6%9%9%6%0%0%0%1%14%15%11%12%0%3%1%4%6%0%0%0%0%0%0%0%0%0%0%0%0%9%10%3%3%0%4%0%0%0%0%0%0%0%0%0%0%0%0%0%0%0%0%0%0%0%0%60.241.225.210
