122.106.60.121 c122-106-60-121.rivrw1.nsw.optusnet.com.au
110.174.138.25 110-174-138-25.static.tpgi.com.au
114.76.142.159 c114-76-142-159.sunsh2.vic.optusnet.com.au
124.170.34.189 124-170-34-189.dyn.iinet.net.au
122.108.160.30 c122-108-160-30.rochd4.qld.optusnet.com.au
124.188.70.122 CPE-124-188-70-122.facz1.ken.bigpond.net.au
122.107.87.219 c122-107-87-219.blktn5.nsw.optusnet.com.au
210.49.76.239 c210-49-76-239.dandn3.vic.optusnet.com.au
118.209.200.208 ppp118-209-200-208.lns20.mel6.internode.on.net
118.209.200.208 ppp118-209-200-208.lns20.mel6.internode.on.net
122.106.60.121 c122-106-60-121.rivrw1.nsw.optusnet.com.au
110.174.138.25 110-174-138-25.static.tpgi.com.au
114.76.142.159 c114-76-142-159.sunsh2.vic.optusnet.com.au
124.170.34.189 124-170-34-189.dyn.iinet.net.au
122.108.160.30 c122-108-160-30.rochd4.qld.optusnet.com.au
124.188.70.122 CPE-124-188-70-122.facz1.ken.bigpond.net.au
122.107.87.219 c122-107-87-219.blktn5.nsw.optusnet.com.au
210.49.76.239 c210-49-76-239.dandn3.vic.optusnet.com.au
118.209.200.208 ppp118-209-200-208.lns20.mel6.internode.on.net
118.209.200.208 ppp118-209-200-208.lns20.mel6.internode.on.net
114.76.232.38 c114-76-232-38.farfl3.nsw.optusnet.com.au
60.242.21.93 60-242-21-93.static.tpgi.com.au
124.181.93.73 CPE-124-181-93-73.lns9.win.bigpond.net.au
203.206.8.30 203-206-8-30.dyn.iinet.net.au
122.106.77.185 c122-106-77-185.rivrw1.nsw.optusnet.com.au
203.219.209.173 203-219-209-173.static.tpgi.com.au
121.45.254.155 ppp121-45-254-155.lns20.per2.internode.on.net
118.210.159.31 ppp118-210-159-31.lns20.adl6.internode.on.net
203.219.209.173 203-219-209-173.static.tpgi.com.au
118.209.192.150 ppp118-209-192-150.lns20.mel6.internode.on.net
203.219.209.173 203-219-209-173.static.tpgi.com.au
203.219.209.173 203-219-209-173.static.tpgi.com.au
60.242.21.93 60-242-21-93.static.tpgi.com.au
124.181.93.73 CPE-124-181-93-73.lns9.win.bigpond.net.au
203.206.8.30 203-206-8-30.dyn.iinet.net.au
122.106.77.185 c122-106-77-185.rivrw1.nsw.optusnet.com.au
203.219.209.173 203-219-209-173.static.tpgi.com.au
121.45.254.155 ppp121-45-254-155.lns20.per2.internode.on.net
118.210.159.31 ppp118-210-159-31.lns20.adl6.internode.on.net
143.69.249.10 ps10.ahp.ps1.us.army.mil
203.219.209.173 203-219-209-173.static.tpgi.com.au
124.181.93.73 CPE-124-181-93-73.lns9.win.bigpond.net.au
124.181.93.73 CPE-124-181-93-73.lns9.win.bigpond.net.au
123.243.182.117 123-243-182-117.static.tpgi.com.au
121.219.136.164 CPE-121-219-136-164.lnse2.lon.bigpond.net.au
114.76.232.38 c114-76-232-38.farfl3.nsw.optusnet.com.au
203.214.85.88 203-214-85-88.dyn.iinet.net.au
60.240.32.245 60-240-32-245.tpgi.com.au
121.98.133.84 133-98-121-84.bitstream.orcon.net.nz
219.90.191.114 219-90-191-114.ip.adam.com.au
123.243.182.117 123-243-182-117.static.tpgi.com.au
211.30.145.206 c211-30-145-206.blktn4.nsw.optusnet.com.au
211.26.171.81 81.171-26-211.dynamic.dsl.syd.iprimus.net.au
121.98.133.84 133-98-121-84.bitstream.orcon.net.nz
211.26.171.81 81.171-26-211.dynamic.dsl.syd.iprimus.net.au
121.98.133.84 133-98-121-84.bitstream.orcon.net.nz
211.26.171.81 81.171-26-211.dynamic.dsl.syd.iprimus.net.au
123.243.182.117 123-243-182-117.static.tpgi.com.au
121.219.136.164 CPE-121-219-136-164.lnse2.lon.bigpond.net.au
114.76.232.38 c114-76-232-38.farfl3.nsw.optusnet.com.au
203.214.85.88 203-214-85-88.dyn.iinet.net.au
60.240.32.245 60-240-32-245.tpgi.com.au
121.98.133.84 133-98-121-84.bitstream.orcon.net.nz
219.90.191.114 219-90-191-114.ip.adam.com.au
123.243.182.117 123-243-182-117.static.tpgi.com.au
211.30.145.206 c211-30-145-206.blktn4.nsw.optusnet.com.au
211.26.171.81 81.171-26-211.dynamic.dsl.syd.iprimus.net.au
121.98.133.84 133-98-121-84.bitstream.orcon.net.nz
211.26.171.81 81.171-26-211.dynamic.dsl.syd.iprimus.net.au
121.98.133.84 133-98-121-84.bitstream.orcon.net.nz
211.26.171.81 81.171-26-211.dynamic.dsl.syd.iprimus.net.au
114.76.235.40 c114-76-235-40.farfl3.nsw.optusnet.com.au
211.30.145.206 c211-30-145-206.blktn4.nsw.optusnet.com.au
123.243.131.182 123-243-131-182.static.tpgi.com.au
123.243.182.117 123-243-182-117.static.tpgi.com.au
124.171.23.174 124-171-23-174.dyn.iinet.net.au
60.240.32.245 60-240-32-245.tpgi.com.au
143.238.86.73 CPE-143-238-86-73.lns5.cht.bigpond.net.au
124.188.70.122 CPE-124-188-70-122.facz1.ken.bigpond.net.au
124.171.23.174 124-171-23-174.dyn.iinet.net.au
58.178.187.213 213.153.dsl.mel.iprimus.net.au
219.90.191.114 219-90-191-114.ip.adam.com.au
123.243.131.182 123-243-131-182.static.tpgi.com.au
114.76.235.40 c114-76-235-40.farfl3.nsw.optusnet.com.au
211.30.145.206 c211-30-145-206.blktn4.nsw.optusnet.com.au
123.243.131.182 123-243-131-182.static.tpgi.com.au
123.243.182.117 123-243-182-117.static.tpgi.com.au
124.171.23.174 124-171-23-174.dyn.iinet.net.au
60.240.32.245 60-240-32-245.tpgi.com.au
143.238.86.73 CPE-143-238-86-73.lns5.cht.bigpond.net.au
124.188.70.122 CPE-124-188-70-122.facz1.ken.bigpond.net.au
124.171.23.174 124-171-23-174.dyn.iinet.net.au
58.178.187.213 213.153.dsl.mel.iprimus.net.au
219.90.191.114 219-90-191-114.ip.adam.com.au
123.243.131.182 123-243-131-182.static.tpgi.com.au
123.243.182.117 123-243-182-117.static.tpgi.com.au
114.76.142.159 c114-76-142-159.sunsh2.vic.optusnet.com.au
124.185.45.194 CPE-124-185-45-194.lns2.cha.bigpond.net.au
58.107.170.246 c58-107-170-246.werrb1.vic.optusnet.com.au
124.168.52.214 124-168-52-214.dyn.iinet.net.au
211.26.171.81 81.171-26-211.dynamic.dsl.syd.iprimus.net.au
58.107.170.246 c58-107-170-246.werrb1.vic.optusnet.com.au
122.107.196.115 c122-107-196-115.eburwd5.vic.optusnet.com.au
60.241.89.82 60-241-89-82.static.tpgi.com.au
110.32.235.148 d110-32-235-148.bla800.nsw.optusnet.com.au
203.219.254.242 203-219-254-242.static.tpgi.com.au
58.178.187.213 213.153.dsl.mel.iprimus.net.au
123.243.182.117 123-243-182-117.static.tpgi.com.au
114.76.142.159 c114-76-142-159.sunsh2.vic.optusnet.com.au
124.185.45.194 CPE-124-185-45-194.lns2.cha.bigpond.net.au
58.107.170.246 c58-107-170-246.werrb1.vic.optusnet.com.au
124.168.52.214 124-168-52-214.dyn.iinet.net.au
211.26.171.81 81.171-26-211.dynamic.dsl.syd.iprimus.net.au
58.107.170.246 c58-107-170-246.werrb1.vic.optusnet.com.au
122.107.196.115 c122-107-196-115.eburwd5.vic.optusnet.com.au
110.32.235.148 d110-32-235-148.bla800.nsw.optusnet.com.au
203.219.254.242 203-219-254-242.static.tpgi.com.au
58.178.187.213 213.153.dsl.mel.iprimus.net.au
124.171.210.88 124-171-210-88.dyn.iinet.net.au
124.171.210.88 124-171-210-88.dyn.iinet.net.au
