211.26.142.141 27015 bumbl3b33 CS-Comp #1
210.50.4.43 27015 bumbl3b33 CS Comp #2
210.50.4.43 27016 bumbl3b33 CS Comp #3
210.50.4.32 27015 1nv1s1bl3 GunGame [TeamPlay]
210.50.4.32 27016 1nv1s1bl3 Iceworld
210.50.4.32 27017 1nv1s1bl3 Scoutzknivez
210.50.4.32 27018 1nv1s1bl3 Bloodstrike
210.50.4.32 27019 will0786 Soccerjam Public
210.50.4.32 27020 will0786 Soccerjam War
