STEAM_0:0:870338%0%0%0%13%27%2152%2502%33%9%9%9%6%1%0%1%1%9%4%11%16%0%0%0%1%11%0%0%0%0%0%0%0%0%0%0%0%0%4%8%0%0%0%0%0%0%1%0%0%0%0%0%0%0%0%0%0%0%0%0%0%0%0%0%120.144.138.9
STEAM_0:0:315700%0%0%0%28%25%3154%2551%33%6%9%9%9%0%0%1%2%12%16%15%10%0%1%1%4%13%0%0%0%1%0%0%0%0%0%0%0%0%13%4%4%3%1%2%0%0%0%1%0%0%0%0%0%0%0%0%0%0%0%0%0%0%0%0%144.132.100.5
STEAM_0:1:8927636%0%0%0%21%26%2671%2701%33%6%9%9%9%0%0%0%1%9%12%14%12%0%0%1%3%12%0%0%0%0%0%0%0%0%0%0%0%0%8%9%0%2%1%1%0%0%0%0%0%0%0%0%0%0%0%0%0%0%0%0%0%0%0%0%60.241.89.82
STEAM_0:1:14737758%0%0%0%17%24%1714%2513%33%9%9%9%6%0%0%1%3%11%6%12%12%0%0%0%4%9%0%0%0%0%0%0%0%0%0%0%0%0%5%2%6%2%1%0%0%0%1%0%0%0%0%0%0%0%0%0%0%0%0%0%0%0%0%0%123.211.109.43
STEAM_0:1:357457%0%0%0%37%19%3232%2412%33%9%9%9%6%0%0%0%2%18%19%9%10%0%0%3%7%14%0%1%0%0%0%0%0%0%0%0%0%0%12%13%0%2%2%7%0%0%0%1%0%0%0%0%0%0%0%0%0%0%0%0%0%0%0%0%121.44.57.47
STEAM_0:0:7644170%0%0%0%17%25%1780%2699%33%9%9%9%6%0%0%0%1%7%10%9%16%0%0%0%5%7%0%0%0%0%0%0%0%0%0%0%0%0%3%0%10%1%1%0%2%0%0%0%0%0%0%0%0%0%0%0%0%0%0%0%0%0%0%0%60.242.94.1
STEAM_0:1:25858134%0%0%0%30%24%3327%2732%33%6%9%9%9%0%0%0%0%12%18%11%13%0%2%1%6%7%0%0%1%0%0%0%0%0%0%0%0%0%13%4%8%0%0%2%0%0%2%1%0%0%0%0%0%0%0%0%0%0%0%0%0%0%0%0%202.7.216.150
STEAM_0:1:16256073%0%0%0%12%24%1357%2502%33%6%9%9%9%0%0%0%2%7%5%14%10%0%0%0%1%10%0%0%0%0%0%0%0%0%0%0%0%0%5%3%1%1%0%2%0%0%0%0%0%0%0%0%0%0%0%0%0%0%0%0%0%0%0%0%122.61.183.19
STEAM_0:1:600885%0%0%0%26%20%2372%2187%33%6%9%9%9%0%0%0%2%11%15%11%9%0%0%0%8%10%0%0%0%0%0%0%0%0%0%0%0%0%10%3%8%2%2%1%0%0%0%0%0%0%0%0%0%0%0%0%0%0%0%0%0%0%0%0%122.108.253.186
STEAM_0:1:49986875%0%0%0%35%23%3795%2755%33%9%9%9%6%0%0%1%1%20%15%11%12%0%3%2%5%7%0%0%0%0%0%0%0%0%0%0%0%0%9%16%3%3%0%4%0%0%0%0%0%0%0%0%0%0%0%0%0%0%0%0%0%0%0%0%60.241.225.210
