STEAM_0:1:10750506%0%0%0%9%9%941%1052%12%0%8%0%4%0%0%0%1%0%9%9%0%0%0%1%2%2%0%0%0%0%0%0%0%0%0%0%0%0%6%0%0%0%0%3%0%0%0%0%0%0%0%0%0%0%0%0%0%0%0%0%0%0%0%0
STEAM_0:0:4521057%0%0%0%4%9%596%864%12%4%0%8%0%0%0%0%0%4%0%0%9%0%0%0%1%2%0%0%0%0%0%0%0%0%0%0%0%0%1%1%0%2%0%0%0%0%0%0%0%0%0%0%0%0%0%0%0%0%0%0%0%0%0%0
STEAM_0:1:2303934%0%0%0%8%9%1061%989%12%4%0%8%0%0%0%1%0%8%0%0%9%0%0%0%1%6%0%0%0%0%0%0%0%0%0%0%0%0%0%5%0%3%0%0%0%0%0%0%0%0%0%0%0%0%0%0%0%0%0%0%0%0%0%0
STEAM_0:1:21864715%0%0%0%7%8%636%915%12%0%8%0%4%0%0%0%1%0%7%8%0%0%0%0%2%3%0%0%0%0%0%0%0%0%0%0%0%0%7%0%0%0%0%0%0%0%0%0%0%0%0%0%0%0%0%0%0%0%0%0%0%0%0%0
STEAM_0:1:4549747%0%0%0%6%9%504%948%12%0%8%0%4%0%0%0%0%0%6%9%0%0%0%0%1%4%0%0%0%0%0%0%0%0%0%0%0%0%5%0%0%0%0%1%0%0%0%0%0%0%0%0%0%0%0%0%0%0%0%0%0%0%0%0
STEAM_0:0:3649099%0%0%0%12%6%1231%837%12%0%8%0%4%0%0%0%5%0%12%6%0%0%0%2%1%4%0%0%1%0%0%0%0%0%0%0%0%0%11%0%0%0%1%0%0%0%0%0%0%0%0%0%0%0%0%0%0%0%0%0%0%0%0%0
STEAM_0:0:1091755%0%0%0%11%9%1181%987%12%4%0%8%0%0%0%0%0%11%0%0%9%0%0%1%3%2%0%0%0%0%0%0%0%0%0%0%0%0%2%8%0%1%0%0%0%0%0%0%0%0%0%0%0%0%0%0%0%0%0%0%0%0%0%0
STEAM_0:1:8927636%0%0%0%11%8%1362%1050%12%0%8%0%4%0%0%0%0%0%11%8%0%0%0%0%4%3%0%0%0%0%0%0%0%0%0%0%0%0%5%1%0%4%1%0%0%0%0%0%0%0%0%0%0%0%0%0%0%0%0%0%0%0%0%0
STEAM_0:1:448134%0%0%0%13%9%1464%946%12%4%0%8%0%0%0%0%0%13%0%0%9%0%0%1%2%6%0%0%0%0%0%0%0%0%0%0%0%0%0%8%0%4%0%1%0%0%0%0%0%0%0%0%0%0%0%0%0%0%0%0%0%0%0%0
STEAM_0:0:17904675%0%0%0%4%9%521%888%12%4%0%8%0%0%0%0%0%4%0%0%9%0%0%0%1%2%0%0%0%0%0%0%0%0%0%0%0%0%0%4%0%0%0%0%0%0%0%0%0%0%0%0%0%0%0%0%0%0%0%0%0%0%0%0
