bbsessionhash=066506690928fb8e2c82254c0783e25c
bblastvisit=1249724051
bblastactivity=0
bbuserid=16259
bbpassword=5d8bfebe757be837c67a10b49455b761
ef793c1b0f8c69f62bed970e3c2a1f6c=u4av7ae6rdgaj0c47eehrt1al6
