STEAM_0:0:9640431%0%0%0%15%28%2124%2838%33%12%5%6%10%0%0%0%0%10%5%13%15%0%0%1%2%8%0%0%0%0%0%0%0%0%0%0%0%0%2%5%0%0%0%8%0%0%0%0%0%0%0%0%0%0%0%0%0%0%0%0%0%0%0%0%58.166.0.243
STEAM_0:0:19724921%0%0%0%18%23%1954%2591%33%12%5%6%10%0%0%1%1%11%7%13%10%0%0%0%4%10%0%0%0%0%0%0%0%0%0%0%0%0%8%0%1%2%1%2%2%0%1%1%0%0%0%0%0%0%0%0%0%0%0%0%0%0%0%0%120.149.112.181
STEAM_0:0:6296777%0%0%0%30%21%3522%2452%33%10%6%5%12%0%0%1%1%18%12%15%6%0%0%3%5%11%0%0%0%0%0%0%0%0%0%0%0%0%12%7%7%0%0%1%1%0%2%0%0%0%0%0%0%0%0%0%0%0%0%0%0%0%0%0%123.243.182.117
STEAM_0:1:5925222%0%0%0%24%21%2373%2633%33%12%5%6%10%0%0%0%1%16%8%12%9%1%0%1%3%10%0%0%0%1%0%0%0%0%0%0%0%0%2%7%2%2%1%2%0%0%7%1%0%0%0%0%0%0%0%0%0%0%0%0%0%0%0%0%222.155.133.166
STEAM_0:1:18968418%0%0%0%17%23%2193%2524%33%10%6%5%12%0%0%0%0%7%10%15%8%0%0%0%2%13%0%0%0%0%0%0%0%0%0%0%0%0%5%4%0%3%1%2%0%0%1%1%0%0%0%0%0%0%0%0%0%0%0%0%0%0%0%0%124.184.2.184
STEAM_0:1:17249307%0%0%0%31%20%2771%2043%33%10%6%5%12%0%0%0%3%16%15%13%7%0%0%3%6%10%0%0%0%0%0%0%0%0%0%0%0%0%14%10%0%2%1%0%0%0%3%1%0%0%0%0%0%0%0%0%0%0%0%0%0%0%0%0%118.208.19.222
STEAM_0:1:8892478%0%0%0%31%25%3245%2854%33%12%5%6%10%0%0%0%0%21%10%13%12%0%0%3%6%10%0%0%0%0%0%0%0%0%0%0%0%0%11%6%6%3%0%2%0%1%0%2%0%0%0%0%0%0%0%0%0%0%0%0%0%0%0%0%14.200.14.73
STEAM_0:1:4952%0%0%0%14%20%2238%2305%33%10%6%5%12%0%0%0%2%7%7%12%8%0%0%0%1%12%0%0%0%0%0%0%0%0%0%0%0%0%3%4%1%2%0%4%0%0%0%0%0%0%0%0%0%0%0%0%0%0%0%0%0%0%0%0%118.92.198.87
STEAM_0:0:17826166%0%0%0%25%22%2433%2449%33%10%6%5%12%0%0%0%3%15%10%14%8%0%1%3%4%4%0%0%0%0%0%0%0%0%0%0%0%0%10%11%0%0%0%0%0%0%4%0%0%0%0%0%0%0%0%0%0%0%0%0%0%0%0%0%121.222.155.88
STEAM_0:1:24624895%0%0%0%18%20%2077%2241%33%12%5%6%10%0%0%2%3%11%7%12%8%0%1%1%2%7%0%0%0%0%0%0%0%0%0%0%0%0%5%10%0%0%0%2%0%0%0%1%0%0%0%0%0%0%0%0%0%0%0%0%0%0%0%0%58.106.161.17
