STEAM_0:0:9640431%0%0%0%12%25%1793%2538%30%10%5%5%10%0%0%0%0%7%5%13%12%0%0%1%2%5%0%0%0%0%0%0%0%0%0%0%0%0%2%2%0%0%0%8%0%0%0%0%0%0%0%0%0%0%0%0%0%0%0%0%0%0%0%0%58.166.0.243
STEAM_0:0:19724921%0%0%0%17%21%1732%2391%30%10%5%5%10%0%0%1%1%10%7%13%8%0%0%0%4%9%0%0%0%0%0%0%0%0%0%0%0%0%8%0%1%2%1%2%2%0%1%0%0%0%0%0%0%0%0%0%0%0%0%0%0%0%0%0%120.149.112.181
STEAM_0:0:6296777%0%0%0%29%18%3281%2152%30%10%5%5%10%0%0%1%1%18%11%12%6%0%0%3%5%10%0%0%0%0%0%0%0%0%0%0%0%0%11%7%7%0%0%1%1%0%2%0%0%0%0%0%0%0%0%0%0%0%0%0%0%0%0%0%123.243.182.117
STEAM_0:1:5925222%0%0%0%23%20%2207%2533%30%10%5%5%10%0%0%0%1%15%8%12%8%1%0%1%3%9%0%0%0%1%0%0%0%0%0%0%0%0%2%7%1%2%1%2%0%0%7%1%0%0%0%0%0%0%0%0%0%0%0%0%0%0%0%0%222.155.133.166
STEAM_0:1:18968418%0%0%0%16%20%2091%2224%30%10%5%5%10%0%0%0%0%7%9%12%8%0%0%0%2%12%0%0%0%0%0%0%0%0%0%0%0%0%4%4%0%3%1%2%0%0%1%1%0%0%0%0%0%0%0%0%0%0%0%0%0%0%0%0%124.184.2.184
STEAM_0:1:17249307%0%0%0%27%18%2544%1847%30%10%5%5%10%0%0%0%2%16%11%11%7%0%0%3%4%10%0%0%0%0%0%0%0%0%0%0%0%0%10%10%0%2%1%0%0%0%3%1%0%0%0%0%0%0%0%0%0%0%0%0%0%0%0%0%118.208.19.222
STEAM_0:1:8892478%0%0%0%27%23%2852%2654%30%10%5%5%10%0%0%0%0%17%10%13%10%0%0%3%5%8%0%0%0%0%0%0%0%0%0%0%0%0%11%6%2%3%0%2%0%1%0%2%0%0%0%0%0%0%0%0%0%0%0%0%0%0%0%0%14.200.14.73
STEAM_0:1:4952%0%0%0%12%18%1927%2022%30%10%5%5%10%0%0%0%2%7%5%10%8%0%0%0%1%10%0%0%0%0%0%0%0%0%0%0%0%0%2%4%1%2%0%3%0%0%0%0%0%0%0%0%0%0%0%0%0%0%0%0%0%0%0%0%118.92.198.87
STEAM_0:0:17826166%0%0%0%23%19%2233%2149%30%10%5%5%10%0%0%0%2%15%8%11%8%0%1%3%4%2%0%0%0%0%0%0%0%0%0%0%0%0%8%11%0%0%0%0%0%0%4%0%0%0%0%0%0%0%0%0%0%0%0%0%0%0%0%0%121.222.155.88
STEAM_0:1:24624895%0%0%0%14%18%1810%1960%30%10%5%5%10%0%0%1%3%7%7%12%6%0%1%1%1%5%0%0%0%0%0%0%0%0%0%0%0%0%5%6%0%0%0%2%0%0%0%1%0%0%0%0%0%0%0%0%0%0%0%0%0%0%0%0%58.106.161.17
