210.50.4.4 27015 1nv1s1bl3 GunGame #2
202.138.55.51 27015 1nv1s1bl3 GunGame #1
210.50.4.61 27015 ang3l5 CS-comp #2
210.50.4.61 27016 ang3l5 CS-comp #3
210.50.4.4 27019 1nv1s1bl3 Mayhem 
210.50.4.4 27018 1nv1s1bl3 Bloodstrike
210.50.4.4 27016 1nv1s1bl3 Iceworld
210.50.4.4 27017 bamb00fun BMF